<?xml version="1.0" encoding="UTF-8"?>
<svg width="1138px" height="842px" style="background:transparent;height:842px;width:1138px" contentStyleType="text/css" preserveAspectRatio="none" version="1.1" viewBox="0 0 1138 842" xmlns="http://www.w3.org/2000/svg" xmlns:xlink="http://www.w3.org/1999/xlink" zoomAndPan="magnify">
<a href="WeatherSpec.html" target="_top" title="WeatherSpec.html" xlink:actuate="onRequest" xlink:href="WeatherSpec.html" xlink:show="new" xlink:title="WeatherSpec.html" xlink:type="simple">
<g id="a">
<rect id="b" x="435" y="86" width="267.58" height="656.92" rx="2.5" ry="2.5" fill="#F1F1F1" stroke="#181818" stroke-width=".5" codeLine="13"/>
<ellipse cx="450" cy="104.97" rx="11" ry="11" fill="#ADD1B2" stroke="#181818"/>
<path d="m452.97 110.61q-0.5782 0.2969-1.2188 0.4375-0.6406 0.1562-1.3437 0.1562-2.5 0-3.8282-1.6406-1.3125-1.6562-1.3125-4.7812t1.3125-4.7813q1.3282-1.6562 3.8282-1.6562 0.7031 0 1.3437 0.1562 0.6563 0.1563 1.2188 0.4531v2.7188q-0.625-0.5781-1.2188-0.8438-0.5937-0.2812-1.2187-0.2812-1.3438 0-2.0313 1.0781-0.6875 1.0625-0.6875 3.1563 0 2.0937 0.6875 3.1718 0.6875 1.0625 2.0313 1.0625 0.625 0 1.2187-0.2656 0.5938-0.2812 1.2188-0.8594v2.7188z"/>
<text x="534.8628" y="103.9951" fill="#000000" font-family="sans-serif" font-size="14" textLength="93.8506">WeatherSpec</text>
<text x="464" y="116.5791" fill="#000000" font-family="sans-serif" font-size="10" textLength="235.5762">nodomain.freeyourgadget.gadgetbridge.model</text>
<line x1="436" x2="701.58" y1="123.94" y2="123.94" stroke="#181818" stroke-width=".5"/>
<ellipse cx="446" cy="137.59" rx="3" ry="3" fill="none" stroke="#038048"/>
<text x="455" y="140.9326" fill="#000000" font-family="sans-serif" font-size="14" text-decoration="underline" textLength="125.5898">CREATOR: &lt;any&gt;</text>
<ellipse cx="446" cy="153.88" rx="3" ry="3" fill="none" stroke="#038048"/>
<text x="455" y="157.2295" fill="#000000" font-family="sans-serif" font-size="14" text-decoration="underline" textLength="90.0771">VERSION: int</text>
<ellipse cx="446" cy="170.18" rx="3" ry="3" fill="none" stroke="#038048"/>
<text x="455" y="173.5264" fill="#000000" font-family="sans-serif" font-size="14" textLength="102.9355">timestamp: int</text>
<ellipse cx="446" cy="186.48" rx="3" ry="3" fill="none" stroke="#038048"/>
<text x="455" y="189.8232" fill="#000000" font-family="sans-serif" font-size="14" textLength="106.4971">location: String</text>
<ellipse cx="446" cy="202.77" rx="3" ry="3" fill="none" stroke="#038048"/>
<text x="455" y="206.1201" fill="#000000" font-family="sans-serif" font-size="14" textLength="118.166">currentTemp: int</text>
<ellipse cx="446" cy="219.07" rx="3" ry="3" fill="none" stroke="#038048"/>
<text x="455" y="222.417" fill="#000000" font-family="sans-serif" font-size="14" textLength="181.125">currentConditionCode: int</text>
<ellipse cx="446" cy="235.37" rx="3" ry="3" fill="none" stroke="#038048"/>
<text x="455" y="238.7139" fill="#000000" font-family="sans-serif" font-size="14" textLength="168.8135">currentCondition: String</text>
<ellipse cx="446" cy="251.66" rx="3" ry="3" fill="none" stroke="#038048"/>
<text x="455" y="255.0107" fill="#000000" font-family="sans-serif" font-size="14" textLength="141.9551">currentHumidity: int</text>
<ellipse cx="446" cy="267.96" rx="3" ry="3" fill="none" stroke="#038048"/>
<text x="455" y="271.3076" fill="#000000" font-family="sans-serif" font-size="14" textLength="135.8574">todayMaxTemp: int</text>
<ellipse cx="446" cy="284.26" rx="3" ry="3" fill="none" stroke="#038048"/>
<text x="455" y="287.6045" fill="#000000" font-family="sans-serif" font-size="14" textLength="131.7559">todayMinTemp: int</text>
<ellipse cx="446" cy="300.55" rx="3" ry="3" fill="none" stroke="#038048"/>
<text x="455" y="303.9014" fill="#000000" font-family="sans-serif" font-size="14" textLength="117.6055">windSpeed: float</text>
<ellipse cx="446" cy="316.85" rx="3" ry="3" fill="none" stroke="#038048"/>
<text x="455" y="320.1982" fill="#000000" font-family="sans-serif" font-size="14" textLength="124.0723">windDirection: int</text>
<ellipse cx="446" cy="333.15" rx="3" ry="3" fill="none" stroke="#038048"/>
<text x="455" y="336.4951" fill="#000000" font-family="sans-serif" font-size="14" textLength="96.5645">uvIndex: float</text>
<ellipse cx="446" cy="349.45" rx="3" ry="3" fill="none" stroke="#038048"/>
<text x="455" y="352.792" fill="#000000" font-family="sans-serif" font-size="14" textLength="145.708">precipProbability: int</text>
<ellipse cx="446" cy="365.74" rx="3" ry="3" fill="none" stroke="#038048"/>
<text x="455" y="369.0889" fill="#000000" font-family="sans-serif" font-size="14" textLength="91.6289">dewPoint: int</text>
<ellipse cx="446" cy="382.04" rx="3" ry="3" fill="none" stroke="#038048"/>
<text x="455" y="385.3857" fill="#000000" font-family="sans-serif" font-size="14" textLength="101.7051">pressure: float</text>
<ellipse cx="446" cy="398.34" rx="3" ry="3" fill="none" stroke="#038048"/>
<text x="455" y="401.6826" fill="#000000" font-family="sans-serif" font-size="14" textLength="106.3262">cloudCover: int</text>
<ellipse cx="446" cy="414.63" rx="3" ry="3" fill="none" stroke="#038048"/>
<text x="455" y="417.9795" fill="#000000" font-family="sans-serif" font-size="14" textLength="98.3076">visibility: float</text>
<ellipse cx="446" cy="430.93" rx="3" ry="3" fill="none" stroke="#038048"/>
<text x="455" y="434.2764" fill="#000000" font-family="sans-serif" font-size="14" textLength="81.9834">sunRise: int</text>
<ellipse cx="446" cy="447.23" rx="3" ry="3" fill="none" stroke="#038048"/>
<text x="455" y="450.5732" fill="#000000" font-family="sans-serif" font-size="14" textLength="75.4482">sunSet: int</text>
<ellipse cx="446" cy="463.52" rx="3" ry="3" fill="none" stroke="#038048"/>
<text x="455" y="466.8701" fill="#000000" font-family="sans-serif" font-size="14" textLength="96.585">moonRise: int</text>
<ellipse cx="446" cy="479.82" rx="3" ry="3" fill="none" stroke="#038048"/>
<text x="455" y="483.167" fill="#000000" font-family="sans-serif" font-size="14" textLength="90.0498">moonSet: int</text>
<ellipse cx="446" cy="496.12" rx="3" ry="3" fill="none" stroke="#038048"/>
<text x="455" y="499.4639" fill="#000000" font-family="sans-serif" font-size="14" textLength="108.8623">moonPhase: int</text>
<ellipse cx="446" cy="512.41" rx="3" ry="3" fill="none" stroke="#038048"/>
<text x="455" y="515.7607" fill="#000000" font-family="sans-serif" font-size="14" textLength="94.3291">latitude: float</text>
<ellipse cx="446" cy="528.71" rx="3" ry="3" fill="none" stroke="#038048"/>
<text x="455" y="532.0576" fill="#000000" font-family="sans-serif" font-size="14" textLength="106.5859">longitude: float</text>
<ellipse cx="446" cy="545.01" rx="3" ry="3" fill="none" stroke="#038048"/>
<text x="455" y="548.3545" fill="#000000" font-family="sans-serif" font-size="14" textLength="128.8574">feelsLikeTemp: int</text>
<ellipse cx="446" cy="561.3" rx="3" ry="3" fill="none" stroke="#038048"/>
<text x="455" y="564.6514" fill="#000000" font-family="sans-serif" font-size="14" textLength="151.1973">isCurrentLocation: int</text>
<ellipse cx="446" cy="577.6" rx="3" ry="3" fill="none" stroke="#038048"/>
<text x="455" y="580.9482" fill="#000000" font-family="sans-serif" font-size="14" textLength="146.665">airQuality: AirQuality</text>
<ellipse cx="446" cy="593.9" rx="3" ry="3" fill="none" stroke="#038048"/>
<text x="455" y="597.2451" fill="#000000" font-family="sans-serif" font-size="14" textLength="194.6943">forecasts: ArrayList&lt;Daily&gt;</text>
<ellipse cx="446" cy="610.2" rx="3" ry="3" fill="none" stroke="#038048"/>
<text x="455" y="613.542" fill="#000000" font-family="sans-serif" font-size="14" textLength="185.1924">hourly: ArrayList&lt;Hourly&gt;</text>
<line x1="436" x2="701.58" y1="620.84" y2="620.84" stroke="#181818" stroke-width=".5"/>
<ellipse cx="446" cy="634.49" rx="3" ry="3" fill="#84BE84" stroke="#038048"/>
<text x="455" y="637.8389" fill="#000000" font-family="sans-serif" font-size="14" textLength="104.7744">WeatherSpec()</text>
<polygon points="446 645.79 450 649.79 446 653.79 442 649.79" fill="#ff4" stroke="#B38D22"/>
<text x="455" y="654.1357" fill="#000000" font-family="sans-serif" font-size="14" textLength="147.752">WeatherSpec(Parcel)</text>
<ellipse cx="446" cy="667.09" rx="3" ry="3" fill="#84BE84" stroke="#038048"/>
<text x="455" y="670.4326" fill="#000000" font-family="sans-serif" font-size="14" text-decoration="underline" textLength="144.2588">toBeaufort(float): int</text>
<ellipse cx="446" cy="683.38" rx="3" ry="3" fill="#84BE84" stroke="#038048"/>
<text x="455" y="686.7295" fill="#000000" font-family="sans-serif" font-size="14" textLength="192.6094">windSpeedAsBeaufort(): int</text>
<ellipse cx="446" cy="699.68" rx="3" ry="3" fill="#84BE84" stroke="#038048"/>
<text x="455" y="703.0264" fill="#000000" font-family="sans-serif" font-size="14" textLength="161.998">getLocation(): Location</text>
<ellipse cx="446" cy="715.98" rx="3" ry="3" fill="#84BE84" stroke="#038048"/>
<text x="455" y="719.3232" fill="#000000" font-family="sans-serif" font-size="14" textLength="160.9521">describeContents(): int</text>
<ellipse cx="446" cy="732.27" rx="3" ry="3" fill="#84BE84" stroke="#038048"/>
<text x="455" y="735.6201" fill="#000000" font-family="sans-serif" font-size="14" textLength="215.1406">writeToParcel(Parcel, int): void</text>
</g>
</a>
<g id="c">
<rect id="d" x="453.5" y="15" width="104.95" height="32" rx="2.5" ry="2.5" fill="#F1F1F1" stroke="#181818" stroke-width=".5" codeLine="53"/>
<ellipse cx="468.5" cy="31" rx="11" ry="11" fill="#B4A7E5" stroke="#181818"/>
<path d="m464.42 26.766v-2.1562h7.3906v2.1562h-2.4687v8.0782h2.4687v2.1562h-7.3906v-2.1562h2.4687v-8.0782h-2.4687z"/>
<text x="482.5" y="35.8467" fill="#000000" font-family="sans-serif" font-size="14" font-style="italic" textLength="72.9463">Parcelable</text>
</g>
<g id="e">
<rect id="f" x="576.5" y="12" width="112.82" height="37.938" rx="2.5" ry="2.5" fill="#F1F1F1" stroke="#181818" stroke-width=".5" codeLine="54"/>
<ellipse cx="591.5" cy="30.969" rx="11" ry="11" fill="#B4A7E5" stroke="#181818"/>
<path d="m587.42 26.734v-2.1563h7.3906v2.1563h-2.4687v8.0781h2.4687v2.1563h-7.3906v-2.1563h2.4687v-8.0781h-2.4687z"/>
<text x="605.5" y="29.9951" fill="#000000" font-family="sans-serif" font-size="14" font-style="italic" textLength="80.8213">Serializable</text>
<text x="629.397" y="42.5791" fill="#000000" font-family="sans-serif" font-size="10" font-style="italic" textLength="33.0273">java.io</text>
</g>
<a href="WeatherSpec.Forecast.html" target="_top" title="WeatherSpec.Forecast.html" xlink:actuate="onRequest" xlink:href="WeatherSpec.Forecast.html" xlink:show="new" xlink:title="WeatherSpec.Forecast.html" xlink:type="simple">
<g id="g">
<rect id="h" x="6" y="779" width="267.58" height="37.938" rx="2.5" ry="2.5" fill="#F1F1F1" stroke="#181818" stroke-width=".5" codeLine="55"/>
<ellipse cx="21" cy="797.97" rx="11" ry="11" fill="#ADD1B2" stroke="#181818"/>
<path d="m23.969 803.61q-0.5782 0.2969-1.2188 0.4375-0.6406 0.1562-1.3437 0.1562-2.5 0-3.8282-1.6406-1.3125-1.6562-1.3125-4.7812t1.3125-4.7813q1.3282-1.6562 3.8282-1.6562 0.7031 0 1.3437 0.1562 0.6563 0.1563 1.2188 0.4531v2.7188q-0.625-0.5781-1.2188-0.8438-0.5937-0.2812-1.2187-0.2812-1.3438 0-2.0313 1.0781-0.6875 1.0625-0.6875 3.1563 0 2.0937 0.6875 3.1718 0.6875 1.0625 2.0313 1.0625 0.625 0 1.2187-0.2656 0.5938-0.2812 1.2188-0.8594v2.7188z"/>
<text x="73.6143" y="796.9951" fill="#000000" font-family="sans-serif" font-size="14" textLength="158.3477">WeatherSpec.Forecast</text>
<text x="35" y="809.5791" fill="#000000" font-family="sans-serif" font-size="10" textLength="235.5762">nodomain.freeyourgadget.gadgetbridge.model</text>
</g>
</a>
<a href="WeatherSpec.AirQuality.html" target="_top" title="WeatherSpec.AirQuality.html" xlink:actuate="onRequest" xlink:href="WeatherSpec.AirQuality.html" xlink:show="new" xlink:title="WeatherSpec.AirQuality.html" xlink:type="simple">
<g id="i">
<rect id="j" x="292" y="779" width="267.58" height="37.938" rx="2.5" ry="2.5" fill="#F1F1F1" stroke="#181818" stroke-width=".5" codeLine="56"/>
<ellipse cx="307" cy="797.97" rx="11" ry="11" fill="#ADD1B2" stroke="#181818"/>
<path d="m309.97 803.61q-0.5782 0.2969-1.2188 0.4375-0.6406 0.1562-1.3437 0.1562-2.5 0-3.8282-1.6406-1.3125-1.6562-1.3125-4.7812t1.3125-4.7813q1.3282-1.6562 3.8282-1.6562 0.7031 0 1.3437 0.1562 0.6563 0.1563 1.2188 0.4531v2.7188q-0.625-0.5781-1.2188-0.8438-0.5937-0.2812-1.2187-0.2812-1.3438 0-2.0313 1.0781-0.6875 1.0625-0.6875 3.1563 0 2.0937 0.6875 3.1718 0.6875 1.0625 2.0313 1.0625 0.625 0 1.2187-0.2656 0.5938-0.2812 1.2188-0.8594v2.7188z"/>
<text x="355.0137" y="796.9951" fill="#000000" font-family="sans-serif" font-size="14" textLength="167.5488">WeatherSpec.AirQuality</text>
<text x="321" y="809.5791" fill="#000000" font-family="sans-serif" font-size="10" textLength="235.5762">nodomain.freeyourgadget.gadgetbridge.model</text>
</g>
</a>
<a href="WeatherSpec.Daily.html" target="_top" title="WeatherSpec.Daily.html" xlink:actuate="onRequest" xlink:href="WeatherSpec.Daily.html" xlink:show="new" xlink:title="WeatherSpec.Daily.html" xlink:type="simple">
<g id="k">
<rect id="l" x="578" y="779" width="267.58" height="37.938" rx="2.5" ry="2.5" fill="#F1F1F1" stroke="#181818" stroke-width=".5" codeLine="57"/>
<ellipse cx="593" cy="797.97" rx="11" ry="11" fill="#ADD1B2" stroke="#181818"/>
<path d="m595.97 803.61q-0.5782 0.2969-1.2188 0.4375-0.6406 0.1562-1.3437 0.1562-2.5 0-3.8282-1.6406-1.3125-1.6562-1.3125-4.7812t1.3125-4.7813q1.3282-1.6562 3.8282-1.6562 0.7031 0 1.3437 0.1562 0.6563 0.1563 1.2188 0.4531v2.7188q-0.625-0.5781-1.2188-0.8438-0.5937-0.2812-1.2187-0.2812-1.3438 0-2.0313 1.0781-0.6875 1.0625-0.6875 3.1563 0 2.0937 0.6875 3.1718 0.6875 1.0625 2.0313 1.0625 0.625 0 1.2187-0.2656 0.5938-0.2812 1.2188-0.8594v2.7188z"/>
<text x="657.9258" y="796.9951" fill="#000000" font-family="sans-serif" font-size="14" textLength="133.7246">WeatherSpec.Daily</text>
<text x="607" y="809.5791" fill="#000000" font-family="sans-serif" font-size="10" textLength="235.5762">nodomain.freeyourgadget.gadgetbridge.model</text>
</g>
</a>
<a href="WeatherSpec.Hourly.html" target="_top" title="WeatherSpec.Hourly.html" xlink:actuate="onRequest" xlink:href="WeatherSpec.Hourly.html" xlink:show="new" xlink:title="WeatherSpec.Hourly.html" xlink:type="simple">
<g id="m">
<rect id="n" x="864" y="779" width="267.58" height="37.938" rx="2.5" ry="2.5" fill="#F1F1F1" stroke="#181818" stroke-width=".5" codeLine="58"/>
<ellipse cx="879" cy="797.97" rx="11" ry="11" fill="#ADD1B2" stroke="#181818"/>
<path d="m881.97 803.61q-0.5782 0.2969-1.2188 0.4375-0.6406 0.1562-1.3437 0.1562-2.5 0-3.8282-1.6406-1.3125-1.6562-1.3125-4.7812t1.3125-4.7813q1.3282-1.6562 3.8282-1.6562 0.7031 0 1.3437 0.1562 0.6563 0.1563 1.2188 0.4531v2.7188q-0.625-0.5781-1.2188-0.8438-0.5937-0.2812-1.2187-0.2812-1.3438 0-2.0313 1.0781-0.6875 1.0625-0.6875 3.1563 0 2.0937 0.6875 3.1718 0.6875 1.0625 2.0313 1.0625 0.625 0 1.2187-0.2656 0.5938-0.2812 1.2188-0.8594v2.7188z"/>
<text x="938.6895" y="796.9951" fill="#000000" font-family="sans-serif" font-size="14" textLength="144.1973">WeatherSpec.Hourly</text>
<text x="893" y="809.5791" fill="#000000" font-family="sans-serif" font-size="10" textLength="235.5762">nodomain.freeyourgadget.gadgetbridge.model</text>
</g>
</a>
<polygon points="508.55 47.428 505.56 66.165 517.4 64.21" fill="none" stroke="#181818"/>
<path d="m511.48 65.187c1.5423 9.3398 0.7834 4.7444 3.3972 20.572" fill="none" stroke="#181818" stroke-dasharray="7.0,7.0"/>
<polygon points="629.96 50.144 621.06 66.903 632.9 68.888" fill="none" stroke="#181818"/>
<path d="m626.98 67.896c-1.5278 9.1069-0.59 3.5165-2.9975 17.868" fill="none" stroke="#181818" stroke-dasharray="7.0,7.0"/>
<ellipse cx="428.75" cy="540.22" rx="8" ry="8" fill="#fff" stroke="#181818"/>
<line x1="422.78" x2="434.73" y1="545.53" y2="534.9" stroke="#181818"/>
<line x1="423.44" x2="434.07" y1="534.24" y2="546.2" stroke="#181818"/>
<path d="m422.78 545.53c-99.298 88.303-213.44 189.81-262.22 233.19" fill="none" stroke="#181818"/>
<ellipse cx="443.38" cy="750.64" rx="8" ry="8" fill="#fff" stroke="#181818"/>
<line x1="440.57" x2="446.19" y1="758.13" y2="743.15" stroke="#181818"/>
<line x1="435.89" x2="450.87" y1="747.83" y2="753.45" stroke="#181818"/>
<path d="m440.57 758.13c-5.3368 14.238-4.2517 11.343-7.66 20.436" fill="none" stroke="#181818"/>
<ellipse cx="694.62" cy="750.64" rx="8" ry="8" fill="#fff" stroke="#181818"/>
<line x1="697.43" x2="691.81" y1="758.13" y2="743.15" stroke="#181818"/>
<line x1="687.13" x2="702.11" y1="753.45" y2="747.83" stroke="#181818"/>
<path d="m697.43 758.13c5.3368 14.238 4.2517 11.343 7.66 20.436" fill="none" stroke="#181818"/>
<ellipse cx="709.25" cy="540.22" rx="8" ry="8" fill="#fff" stroke="#181818"/>
<line x1="715.22" x2="703.27" y1="545.53" y2="534.9" stroke="#181818"/>
<line x1="703.93" x2="714.56" y1="546.2" y2="534.24" stroke="#181818"/>
<path d="m715.22 545.53c99.298 88.303 213.44 189.81 262.22 233.19" fill="none" stroke="#181818"/>
<text x="563.9106" y="820.2822" fill="#888888" font-family="sans-serif" font-size="10" textLength="3.1787"></text>
<a href="https://github.com/talsma-ict/umldoclet" target="_top" title="https://github.com/talsma-ict/umldoclet" xlink:actuate="onRequest" xlink:href="https://github.com/talsma-ict/umldoclet" xlink:show="new" xlink:title="https://github.com/talsma-ict/umldoclet" xlink:type="simple">
<text x="524.3452" y="831.9229" fill="#888888" font-family="sans-serif" font-size="10" textLength="82.3096">UMLDoclet 2.2.1</text>
</a>
</svg>
