<?xml version="1.0" encoding="UTF-8"?>
<svg width="455px" height="385px" style="background:transparent;height:385px;width:455px" contentStyleType="text/css" preserveAspectRatio="none" version="1.1" viewBox="0 0 455 385" xmlns="http://www.w3.org/2000/svg" xmlns:xlink="http://www.w3.org/1999/xlink" zoomAndPan="magnify">
<a href="APIReaders.getLayerImages.html" target="_top" title="APIReaders.getLayerImages.html" xlink:actuate="onRequest" xlink:href="APIReaders.getLayerImages.html" xlink:show="new" xlink:title="APIReaders.getLayerImages.html" xlink:type="simple">
<g id="a">
<rect id="b" x="6" y="110" width="398.76" height="249.5" rx="2.5" ry="2.5" fill="#F1F1F1" stroke="#181818" stroke-width=".5" codeLine="13"/>
<ellipse cx="78.075" cy="128.97" rx="11" ry="11" fill="#ADD1B2" stroke="#181818"/>
<path d="m81.044 134.61q-0.5781 0.2969-1.2187 0.4375-0.6406 0.1562-1.3438 0.1562-2.5 0-3.8281-1.6406-1.3125-1.6562-1.3125-4.7812t1.3125-4.7813q1.3281-1.6562 3.8281-1.6562 0.7032 0 1.3438 0.1562 0.6562 0.1563 1.2187 0.4531v2.7188q-0.625-0.5781-1.2187-0.8438-0.5938-0.2812-1.2188-0.2812-1.3437 0-2.0312 1.0781-0.6875 1.0625-0.6875 3.1563 0 2.0937 0.6875 3.1718 0.6875 1.0625 2.0312 1.0625 0.625 0 1.2188-0.2656 0.5937-0.2812 1.2187-0.8594v2.7188z"/>
<text x="123.0166" y="127.9951" fill="#000000" font-family="sans-serif" font-size="14" textLength="197.2305">APIReaders.getLayerImages</text>
<text x="98.5752" y="140.5791" fill="#000000" font-family="sans-serif" font-size="10" textLength="246.1133">de.kaffeemitkoffein.tinyweatherforecastgermany</text>
<line x1="7" x2="403.76" y1="147.94" y2="147.94" stroke="#181818" stroke-width=".5"/>
<ellipse cx="17" cy="161.59" rx="3" ry="3" fill="none" stroke="#038048"/>
<text x="26" y="164.9326" fill="#000000" font-family="sans-serif" font-size="14" textLength="159.5303">ssl_exception: boolean</text>
<line x1="7" x2="403.76" y1="172.23" y2="172.23" stroke="#181818" stroke-width=".5"/>
<ellipse cx="17" cy="185.88" rx="3" ry="3" fill="#84BE84" stroke="#038048"/>
<text x="26" y="189.2295" fill="#000000" font-family="sans-serif" font-size="14" textLength="372.7637">getLayerImages(Context, ArrayList&lt;WeatherLayer&gt;)</text>
<ellipse cx="17" cy="202.18" rx="3" ry="3" fill="#84BE84" stroke="#038048"/>
<text x="26" y="205.5264" fill="#000000" font-family="sans-serif" font-size="14" text-decoration="underline" textLength="336.2393">getGeoServerURL(boolean, WeatherLayer): URL</text>
<ellipse cx="17" cy="218.48" rx="3" ry="3" fill="#84BE84" stroke="#038048"/>
<text x="26" y="221.8232" fill="#000000" font-family="sans-serif" font-size="14" text-decoration="underline" textLength="195.248">getTimeStamp(long): String</text>
<ellipse cx="17" cy="234.77" rx="3" ry="3" fill="#84BE84" stroke="#038048"/>
<text x="26" y="238.1201" fill="#000000" font-family="sans-serif" font-size="14" textLength="355.3389">getLayerInputStream(WeatherLayer): InputStream</text>
<ellipse cx="17" cy="251.07" rx="3" ry="3" fill="#84BE84" stroke="#038048"/>
<text x="26" y="254.417" fill="#000000" font-family="sans-serif" font-size="14" text-decoration="underline" textLength="272.3027">readImage(InputStream, File): boolean</text>
<ellipse cx="17" cy="267.37" rx="3" ry="3" fill="#84BE84" stroke="#038048"/>
<text x="26" y="270.7139" fill="#000000" font-family="sans-serif" font-size="14" textLength="310.6045">readLayer(WeatherLayer, boolean): boolean</text>
<ellipse cx="17" cy="283.66" rx="3" ry="3" fill="#84BE84" stroke="#038048"/>
<text x="26" y="287.0107" fill="#000000" font-family="sans-serif" font-size="14" textLength="216.4736">setForceUpdate(boolean): void</text>
<ellipse cx="17" cy="299.96" rx="3" ry="3" fill="#84BE84" stroke="#038048"/>
<text x="26" y="303.3076" fill="#000000" font-family="sans-serif" font-size="14" textLength="101.3564">onStart(): void</text>
<ellipse cx="17" cy="316.26" rx="3" ry="3" fill="#84BE84" stroke="#038048"/>
<text x="26" y="319.6045" fill="#000000" font-family="sans-serif" font-size="14" textLength="226.5635">onProgress(WeatherLayer): void</text>
<ellipse cx="17" cy="332.55" rx="3" ry="3" fill="#84BE84" stroke="#038048"/>
<text x="26" y="335.9014" fill="#000000" font-family="sans-serif" font-size="14" textLength="181.501">onFinished(boolean): void</text>
<ellipse cx="17" cy="348.85" rx="3" ry="3" fill="#84BE84" stroke="#038048"/>
<text x="26" y="352.1982" fill="#000000" font-family="sans-serif" font-size="14" textLength="73.2197">run(): void</text>
</g>
</a>
<g id="c">
<rect id="d" x="53" y="12" width="99.22" height="62.234" rx="2.5" ry="2.5" fill="#F1F1F1" stroke="#181818" stroke-width=".5" codeLine="28"/>
<ellipse cx="68.407" cy="30.969" rx="11" ry="11" fill="#B4A7E5" stroke="#181818"/>
<path d="m64.329 26.734v-2.1563h7.3906v2.1563h-2.4687v8.0781h2.4687v2.1563h-7.3906v-2.1563h2.4688v-8.0781h-2.4688z"/>
<text x="82.4974" y="29.9951" fill="#000000" font-family="sans-serif" font-size="14" font-style="italic" textLength="66.3154">Runnable</text>
<text x="92.7938" y="42.5791" fill="#000000" font-family="sans-serif" font-size="10" font-style="italic" textLength="45.7227">java.lang</text>
<line x1="54" x2="151.22" y1="49.938" y2="49.938" stroke="#181818" stroke-width=".5"/>
<ellipse cx="64" cy="63.586" rx="3" ry="3" fill="#84BE84" stroke="#038048"/>
<text x="73" y="66.9326" fill="#000000" font-family="sans-serif" font-size="14" font-style="italic" textLength="73.2197">run(): void</text>
</g>
<a href="APIReaders.html" target="_top" title="APIReaders.html" xlink:actuate="onRequest" xlink:href="APIReaders.html" xlink:show="new" xlink:title="APIReaders.html" xlink:type="simple">
<g id="e">
<rect id="f" x="170.5" y="24" width="278.11" height="37.938" rx="2.5" ry="2.5" fill="#F1F1F1" stroke="#181818" stroke-width=".5" codeLine="31"/>
<ellipse cx="185.5" cy="42.969" rx="11" ry="11" fill="#ADD1B2" stroke="#181818"/>
<path d="m188.47 48.609q-0.5782 0.2969-1.2188 0.4375-0.6406 0.1562-1.3437 0.1562-2.5 0-3.8282-1.6406-1.3125-1.6562-1.3125-4.7812t1.3125-4.7813q1.3282-1.6562 3.8282-1.6562 0.7031 0 1.3437 0.1562 0.6563 0.1563 1.2188 0.4531v2.7188q-0.625-0.5781-1.2188-0.8438-0.5937-0.2812-1.2187-0.2812-1.3438 0-2.0313 1.0781-0.6875 1.0625-0.6875 3.1563 0 2.0937 0.6875 3.1718 0.6875 1.0625 2.0313 1.0625 0.625 0 1.2187-0.2656 0.5938-0.2812 1.2188-0.8594v2.7188z"/>
<text x="282.7476" y="41.9951" fill="#000000" font-family="sans-serif" font-size="14" textLength="79.6182">APIReaders</text>
<text x="199.5" y="54.5791" fill="#000000" font-family="sans-serif" font-size="10" textLength="246.1133">de.kaffeemitkoffein.tinyweatherforecastgermany</text>
</g>
</a>
<polygon points="118.82 74.106 122.12 92.79 132.67 87.071" fill="none" stroke="#181818"/>
<path d="m127.4 89.93c5.6158 10.359 3.7221 6.8661 10.853 20.019" fill="none" stroke="#181818" stroke-dasharray="7.0,7.0"/>
<ellipse cx="295.69" cy="69.236" rx="8" ry="8" fill="#fff" stroke="#181818"/>
<line x1="291.85" x2="299.53" y1="76.253" y2="62.218" stroke="#181818"/>
<line x1="288.67" x2="302.7" y1="65.394" y2="73.077" stroke="#181818"/>
<path d="m291.85 76.253c-6.6093 12.075-8.2418 15.057-18.462 33.729" fill="none" stroke="#181818"/>
<text x="222.1606" y="363.2822" fill="#888888" font-family="sans-serif" font-size="10" textLength="3.1787"></text>
<a href="https://github.com/talsma-ict/umldoclet" target="_top" title="https://github.com/talsma-ict/umldoclet" xlink:actuate="onRequest" xlink:href="https://github.com/talsma-ict/umldoclet" xlink:show="new" xlink:title="https://github.com/talsma-ict/umldoclet" xlink:type="simple">
<text x="182.5952" y="374.9229" fill="#888888" font-family="sans-serif" font-size="10" textLength="82.3096">UMLDoclet 2.2.1</text>
</a>
</svg>
