<?xml version="1.0" encoding="UTF-8"?>
<svg width="429px" height="328px" style="background:transparent;height:328px;width:429px" contentStyleType="text/css" preserveAspectRatio="none" version="1.1" viewBox="0 0 429 328" xmlns="http://www.w3.org/2000/svg" xmlns:xlink="http://www.w3.org/1999/xlink" zoomAndPan="magnify">
<a href="APIReaders.PollenReader.html" target="_top" title="APIReaders.PollenReader.html" xlink:actuate="onRequest" xlink:href="APIReaders.PollenReader.html" xlink:show="new" xlink:title="APIReaders.PollenReader.html" xlink:type="simple">
<g id="a">
<rect id="b" x="6" y="110" width="346.09" height="192.61" rx="2.5" ry="2.5" fill="#F1F1F1" stroke="#181818" stroke-width=".5" codeLine="13"/>
<ellipse cx="51.736" cy="128.97" rx="11" ry="11" fill="#ADD1B2" stroke="#181818"/>
<path d="m54.705 134.61q-0.5781 0.2969-1.2188 0.4375-0.6406 0.1562-1.3437 0.1562-2.5 0-3.8281-1.6406-1.3125-1.6562-1.3125-4.7812t1.3125-4.7813q1.3281-1.6562 3.8281-1.6562 0.7031 0 1.3437 0.1562 0.6563 0.1563 1.2188 0.4531v2.7188q-0.625-0.5781-1.2188-0.8438-0.5937-0.2812-1.2187-0.2812-1.3438 0-2.0313 1.0781-0.6875 1.0625-0.6875 3.1563 0 2.0937 0.6875 3.1718 0.6875 1.0625 2.0313 1.0625 0.625 0 1.2187-0.2656 0.5938-0.2812 1.2188-0.8594v2.7188z"/>
<text x="107.0342" y="127.9951" fill="#000000" font-family="sans-serif" font-size="14" textLength="176.5176">APIReaders.PollenReader</text>
<text x="72.2363" y="140.5791" fill="#000000" font-family="sans-serif" font-size="10" textLength="246.1133">de.kaffeemitkoffein.tinyweatherforecastgermany</text>
<line x1="7" x2="351.09" y1="147.94" y2="147.94" stroke="#181818" stroke-width=".5"/>
<ellipse cx="17" cy="161.59" rx="3" ry="3" fill="#84BE84" stroke="#038048"/>
<text x="26" y="164.9326" fill="#000000" font-family="sans-serif" font-size="14" textLength="158.4639">PollenReader(Context)</text>
<ellipse cx="17" cy="177.88" rx="3" ry="3" fill="#84BE84" stroke="#038048"/>
<text x="26" y="181.2295" fill="#000000" font-family="sans-serif" font-size="14" text-decoration="underline" textLength="279.501">getPollenStream(boolean): InputStream</text>
<ellipse cx="17" cy="194.18" rx="3" ry="3" fill="#84BE84" stroke="#038048"/>
<text x="26" y="197.5264" fill="#000000" font-family="sans-serif" font-size="14" textLength="240.9463">readPollenDataRawString(): String</text>
<ellipse cx="17" cy="210.48" rx="3" ry="3" fill="#84BE84" stroke="#038048"/>
<text x="26" y="213.8232" fill="#000000" font-family="sans-serif" font-size="14" textLength="259">parsePollenDateToMillis(String): long</text>
<ellipse cx="17" cy="226.77" rx="3" ry="3" fill="#84BE84" stroke="#038048"/>
<text x="26" y="230.1201" fill="#000000" font-family="sans-serif" font-size="14" text-decoration="underline" textLength="320.0859">getPollenDataFromJson(JSONObject, int): int[]</text>
<ellipse cx="17" cy="243.07" rx="3" ry="3" fill="#84BE84" stroke="#038048"/>
<text x="26" y="246.417" fill="#000000" font-family="sans-serif" font-size="14" textLength="183.5996">readPollenData(): boolean</text>
<ellipse cx="17" cy="259.37" rx="3" ry="3" fill="#84BE84" stroke="#038048"/>
<text x="26" y="262.7139" fill="#000000" font-family="sans-serif" font-size="14" textLength="101.3564">onStart(): void</text>
<ellipse cx="17" cy="275.66" rx="3" ry="3" fill="#84BE84" stroke="#038048"/>
<text x="26" y="279.0107" fill="#000000" font-family="sans-serif" font-size="14" textLength="181.501">onFinished(boolean): void</text>
<ellipse cx="17" cy="291.96" rx="3" ry="3" fill="#84BE84" stroke="#038048"/>
<text x="26" y="295.3076" fill="#000000" font-family="sans-serif" font-size="14" textLength="73.2197">run(): void</text>
</g>
</a>
<g id="c">
<rect id="d" x="26.5" y="12" width="99.22" height="62.234" rx="2.5" ry="2.5" fill="#F1F1F1" stroke="#181818" stroke-width=".5" codeLine="25"/>
<ellipse cx="41.907" cy="30.969" rx="11" ry="11" fill="#B4A7E5" stroke="#181818"/>
<path d="m37.829 26.734v-2.1563h7.3906v2.1563h-2.4687v8.0781h2.4687v2.1563h-7.3906v-2.1563h2.4688v-8.0781h-2.4688z"/>
<text x="55.9974" y="29.9951" fill="#000000" font-family="sans-serif" font-size="14" font-style="italic" textLength="66.3154">Runnable</text>
<text x="66.2938" y="42.5791" fill="#000000" font-family="sans-serif" font-size="10" font-style="italic" textLength="45.7227">java.lang</text>
<line x1="27.5" x2="124.72" y1="49.938" y2="49.938" stroke="#181818" stroke-width=".5"/>
<ellipse cx="37.5" cy="63.586" rx="3" ry="3" fill="#84BE84" stroke="#038048"/>
<text x="46.5" y="66.9326" fill="#000000" font-family="sans-serif" font-size="14" font-style="italic" textLength="73.2197">run(): void</text>
</g>
<a href="APIReaders.html" target="_top" title="APIReaders.html" xlink:actuate="onRequest" xlink:href="APIReaders.html" xlink:show="new" xlink:title="APIReaders.html" xlink:type="simple">
<g id="e">
<rect id="f" x="144" y="24" width="278.11" height="37.938" rx="2.5" ry="2.5" fill="#F1F1F1" stroke="#181818" stroke-width=".5" codeLine="28"/>
<ellipse cx="159" cy="42.969" rx="11" ry="11" fill="#ADD1B2" stroke="#181818"/>
<path d="m161.97 48.609q-0.5782 0.2969-1.2188 0.4375-0.6406 0.1562-1.3437 0.1562-2.5 0-3.8282-1.6406-1.3125-1.6562-1.3125-4.7812t1.3125-4.7813q1.3282-1.6562 3.8282-1.6562 0.7031 0 1.3437 0.1562 0.6563 0.1563 1.2188 0.4531v2.7188q-0.625-0.5781-1.2188-0.8438-0.5937-0.2812-1.2187-0.2812-1.3438 0-2.0313 1.0781-0.6875 1.0625-0.6875 3.1563 0 2.0937 0.6875 3.1718 0.6875 1.0625 2.0313 1.0625 0.625 0 1.2187-0.2656 0.5938-0.2812 1.2188-0.8594v2.7188z"/>
<text x="256.2476" y="41.9951" fill="#000000" font-family="sans-serif" font-size="14" textLength="79.6182">APIReaders</text>
<text x="173" y="54.5791" fill="#000000" font-family="sans-serif" font-size="10" textLength="246.1133">de.kaffeemitkoffein.tinyweatherforecastgermany</text>
</g>
</a>
<polygon points="95.374 74.377 99.994 92.78 110.11 86.327" fill="none" stroke="#181818"/>
<path d="m105.05 89.553c6.6433 10.416 4.7951 7.5187 12.955 20.314" fill="none" stroke="#181818" stroke-dasharray="7.0,7.0"/>
<ellipse cx="266.94" cy="68.938" rx="8" ry="8" fill="#fff" stroke="#181818"/>
<line x1="262.61" x2="271.27" y1="75.664" y2="62.212" stroke="#181818"/>
<line x1="260.21" x2="273.67" y1="64.607" y2="73.27" stroke="#181818"/>
<path d="m262.61 75.664c-7.8621 12.209-10.226 15.88-21.931 34.057" fill="none" stroke="#181818"/>
<text x="208.9106" y="306.2822" fill="#888888" font-family="sans-serif" font-size="10" textLength="3.1787"></text>
<a href="https://github.com/talsma-ict/umldoclet" target="_top" title="https://github.com/talsma-ict/umldoclet" xlink:actuate="onRequest" xlink:href="https://github.com/talsma-ict/umldoclet" xlink:show="new" xlink:title="https://github.com/talsma-ict/umldoclet" xlink:type="simple">
<text x="169.3452" y="317.9229" fill="#888888" font-family="sans-serif" font-size="10" textLength="82.3096">UMLDoclet 2.2.1</text>
</a>
</svg>
