<?xml version="1.0" encoding="UTF-8"?>
<svg width="427px" height="547px" style="background:transparent;height:547px;width:427px" contentStyleType="text/css" preserveAspectRatio="none" version="1.1" viewBox="0 0 427 547" xmlns="http://www.w3.org/2000/svg" xmlns:xlink="http://www.w3.org/1999/xlink" zoomAndPan="magnify">
<a href="APIReaders.RadarMNSetGeoserverRunnable.html" target="_top" title="APIReaders.RadarMNSetGeoserverRunnable.html" xlink:actuate="onRequest" xlink:href="APIReaders.RadarMNSetGeoserverRunnable.html" xlink:show="new" xlink:title="APIReaders.RadarMNSetGeoserverRunnable.html" xlink:type="simple">
<g id="a">
<rect id="b" x="6" y="110" width="341.8" height="412.47" rx="2.5" ry="2.5" fill="#F1F1F1" stroke="#181818" stroke-width=".5" codeLine="13"/>
<ellipse cx="21" cy="128.97" rx="11" ry="11" fill="#ADD1B2" stroke="#181818"/>
<path d="m23.969 134.61q-0.5782 0.2969-1.2188 0.4375-0.6406 0.1562-1.3437 0.1562-2.5 0-3.8282-1.6406-1.3125-1.6562-1.3125-4.7812t1.3125-4.7813q1.3282-1.6562 3.8282-1.6562 0.7031 0 1.3437 0.1562 0.6563 0.1563 1.2188 0.4531v2.7188q-0.625-0.5781-1.2188-0.8438-0.5937-0.2812-1.2187-0.2812-1.3438 0-2.0313 1.0781-0.6875 1.0625-0.6875 3.1563 0 2.0937 0.6875 3.1718 0.6875 1.0625 2.0313 1.0625 0.625 0 1.2187-0.2656 0.5938-0.2812 1.2188-0.8594v2.7188z"/>
<text x="35" y="127.9951" fill="#000000" font-family="sans-serif" font-size="14" textLength="309.7979">APIReaders.RadarMNSetGeoserverRunnable</text>
<text x="66.8423" y="140.5791" fill="#000000" font-family="sans-serif" font-size="10" textLength="246.1133">de.kaffeemitkoffein.tinyweatherforecastgermany</text>
<line x1="7" x2="346.8" y1="147.94" y2="147.94" stroke="#181818" stroke-width=".5"/>
<ellipse cx="17" cy="161.59" rx="3" ry="3" fill="none" stroke="#038048"/>
<text x="26" y="164.9326" fill="#000000" font-family="sans-serif" font-size="14" text-decoration="underline" textLength="288.4287">RADAR_CACHE_FILENAME_PREFIX: String</text>
<ellipse cx="17" cy="177.88" rx="3" ry="3" fill="none" stroke="#038048"/>
<text x="26" y="181.2295" fill="#000000" font-family="sans-serif" font-size="14" text-decoration="underline" textLength="288.5996">RADAR_CACHE_FILENAME_SUFFIX: String</text>
<ellipse cx="17" cy="194.18" rx="3" ry="3" fill="none" stroke="#038048"/>
<text x="26" y="197.5264" fill="#000000" font-family="sans-serif" font-size="14" text-decoration="underline" textLength="174.8701">TIMESTEP_5MINUTES: int</text>
<ellipse cx="17" cy="210.48" rx="3" ry="3" fill="none" stroke="#038048"/>
<text x="26" y="213.8232" fill="#000000" font-family="sans-serif" font-size="14" text-decoration="underline" textLength="130.6416">DATASET_SIZE: int</text>
<ellipse cx="17" cy="226.77" rx="3" ry="3" fill="none" stroke="#038048"/>
<text x="26" y="230.1201" fill="#000000" font-family="sans-serif" font-size="14" textLength="159.5303">ssl_exception: boolean</text>
<line x1="7" x2="346.8" y1="237.42" y2="237.42" stroke="#181818" stroke-width=".5"/>
<ellipse cx="17" cy="251.07" rx="3" ry="3" fill="#84BE84" stroke="#038048"/>
<text x="26" y="254.417" fill="#000000" font-family="sans-serif" font-size="14" textLength="291.7441">RadarMNSetGeoserverRunnable(Context)</text>
<ellipse cx="17" cy="267.37" rx="3" ry="3" fill="#84BE84" stroke="#038048"/>
<text x="26" y="270.7139" fill="#000000" font-family="sans-serif" font-size="14" textLength="216.4736">setForceUpdate(boolean): void</text>
<ellipse cx="17" cy="283.66" rx="3" ry="3" fill="#84BE84" stroke="#038048"/>
<text x="26" y="287.0107" fill="#000000" font-family="sans-serif" font-size="14" textLength="303.1123">roundUTCUpToNextFiveMinutes(long): long</text>
<ellipse cx="17" cy="299.96" rx="3" ry="3" fill="#84BE84" stroke="#038048"/>
<text x="26" y="303.3076" fill="#000000" font-family="sans-serif" font-size="14" textLength="284.6826">getUrlStringForTime(long, boolean): URL</text>
<ellipse cx="17" cy="316.26" rx="3" ry="3" fill="#84BE84" stroke="#038048"/>
<text x="26" y="319.6045" fill="#000000" font-family="sans-serif" font-size="14" text-decoration="underline" textLength="238.2939">getRadarMNFile(Context, int): File</text>
<ellipse cx="17" cy="332.55" rx="3" ry="3" fill="#84BE84" stroke="#038048"/>
<text x="26" y="335.9014" fill="#000000" font-family="sans-serif" font-size="14" text-decoration="underline" textLength="304.9443">radarCacheFileExists(Context, int): boolean</text>
<ellipse cx="17" cy="348.85" rx="3" ry="3" fill="#84BE84" stroke="#038048"/>
<text x="26" y="352.1982" fill="#000000" font-family="sans-serif" font-size="14" text-decoration="underline" textLength="298.6689">radarCacheFileValid(Context, int): boolean</text>
<ellipse cx="17" cy="365.15" rx="3" ry="3" fill="#84BE84" stroke="#038048"/>
<text x="26" y="368.4951" fill="#000000" font-family="sans-serif" font-size="14" text-decoration="underline" textLength="250.6807">fullRadarDataSet(Context): boolean</text>
<ellipse cx="17" cy="381.45" rx="3" ry="3" fill="#84BE84" stroke="#038048"/>
<text x="26" y="384.792" fill="#000000" font-family="sans-serif" font-size="14" text-decoration="underline" textLength="270.3955">deleteCacheFile(Context, int): boolean</text>
<ellipse cx="17" cy="397.74" rx="3" ry="3" fill="#84BE84" stroke="#038048"/>
<text x="26" y="401.0889" fill="#000000" font-family="sans-serif" font-size="14" text-decoration="underline" textLength="224.1914">deleteCacheFiles(Context): void</text>
<ellipse cx="17" cy="414.04" rx="3" ry="3" fill="#84BE84" stroke="#038048"/>
<text x="26" y="417.3857" fill="#000000" font-family="sans-serif" font-size="14" textLength="195.2412">fetchRadarSet(int, int): void</text>
<ellipse cx="17" cy="430.34" rx="3" ry="3" fill="#84BE84" stroke="#038048"/>
<text x="26" y="433.6826" fill="#000000" font-family="sans-serif" font-size="14" textLength="181.7676">incrementProgress(): void</text>
<ellipse cx="17" cy="446.63" rx="3" ry="3" fill="#84BE84" stroke="#038048"/>
<text x="26" y="449.9795" fill="#000000" font-family="sans-serif" font-size="14" textLength="163.1328">incrementErrors(): void</text>
<ellipse cx="17" cy="462.93" rx="3" ry="3" fill="#84BE84" stroke="#038048"/>
<text x="26" y="466.2764" fill="#000000" font-family="sans-serif" font-size="14" textLength="101.3564">onStart(): void</text>
<ellipse cx="17" cy="479.23" rx="3" ry="3" fill="#84BE84" stroke="#038048"/>
<text x="26" y="482.5732" fill="#000000" font-family="sans-serif" font-size="14" textLength="220.6162">onFinished(long, boolean): void</text>
<ellipse cx="17" cy="495.52" rx="3" ry="3" fill="#84BE84" stroke="#038048"/>
<text x="26" y="498.8701" fill="#000000" font-family="sans-serif" font-size="14" textLength="185.1309">onProgress(long, int): void</text>
<ellipse cx="17" cy="511.82" rx="3" ry="3" fill="#84BE84" stroke="#038048"/>
<text x="26" y="515.167" fill="#000000" font-family="sans-serif" font-size="14" textLength="73.2197">run(): void</text>
</g>
</a>
<g id="c">
<rect id="d" x="24.5" y="12" width="99.22" height="62.234" rx="2.5" ry="2.5" fill="#F1F1F1" stroke="#181818" stroke-width=".5" codeLine="38"/>
<ellipse cx="39.907" cy="30.969" rx="11" ry="11" fill="#B4A7E5" stroke="#181818"/>
<path d="m35.829 26.734v-2.1563h7.3906v2.1563h-2.4687v8.0781h2.4687v2.1563h-7.3906v-2.1563h2.4688v-8.0781h-2.4688z"/>
<text x="53.9974" y="29.9951" fill="#000000" font-family="sans-serif" font-size="14" font-style="italic" textLength="66.3154">Runnable</text>
<text x="64.2938" y="42.5791" fill="#000000" font-family="sans-serif" font-size="10" font-style="italic" textLength="45.7227">java.lang</text>
<line x1="25.5" x2="122.72" y1="49.938" y2="49.938" stroke="#181818" stroke-width=".5"/>
<ellipse cx="35.5" cy="63.586" rx="3" ry="3" fill="#84BE84" stroke="#038048"/>
<text x="44.5" y="66.9326" fill="#000000" font-family="sans-serif" font-size="14" font-style="italic" textLength="73.2197">run(): void</text>
</g>
<a href="APIReaders.html" target="_top" title="APIReaders.html" xlink:actuate="onRequest" xlink:href="APIReaders.html" xlink:show="new" xlink:title="APIReaders.html" xlink:type="simple">
<g id="e">
<rect id="f" x="142" y="24" width="278.11" height="37.938" rx="2.5" ry="2.5" fill="#F1F1F1" stroke="#181818" stroke-width=".5" codeLine="41"/>
<ellipse cx="157" cy="42.969" rx="11" ry="11" fill="#ADD1B2" stroke="#181818"/>
<path d="m159.97 48.609q-0.5782 0.2969-1.2188 0.4375-0.6406 0.1562-1.3437 0.1562-2.5 0-3.8282-1.6406-1.3125-1.6562-1.3125-4.7812t1.3125-4.7813q1.3282-1.6562 3.8282-1.6562 0.7031 0 1.3437 0.1562 0.6563 0.1563 1.2188 0.4531v2.7188q-0.625-0.5781-1.2188-0.8438-0.5937-0.2812-1.2187-0.2812-1.3438 0-2.0313 1.0781-0.6875 1.0625-0.6875 3.1563 0 2.0937 0.6875 3.1718 0.6875 1.0625 2.0313 1.0625 0.625 0 1.2187-0.2656 0.5938-0.2812 1.2188-0.8594v2.7188z"/>
<text x="254.2476" y="41.9951" fill="#000000" font-family="sans-serif" font-size="14" textLength="79.6182">APIReaders</text>
<text x="171" y="54.5791" fill="#000000" font-family="sans-serif" font-size="10" textLength="246.1133">de.kaffeemitkoffein.tinyweatherforecastgermany</text>
</g>
</a>
<polygon points="85.416 74.037 86.203 92.994 97.42 88.731" fill="none" stroke="#181818"/>
<path d="m91.811 90.863c3.8498 10.129 2.0866 5.4898 7.1966 18.934" fill="none" stroke="#181818" stroke-dasharray="7.0,7.0"/>
<ellipse cx="271.15" cy="69.671" rx="8" ry="8" fill="#fff" stroke="#181818"/>
<line x1="268.28" x2="274.01" y1="77.14" y2="62.202" stroke="#181818"/>
<line x1="263.68" x2="278.62" y1="66.804" y2="72.537" stroke="#181818"/>
<path d="m268.28 77.14c-4.5088 11.749-5.1685 13.468-12.547 32.696" fill="none" stroke="#181818"/>
<text x="207.9106" y="525.2822" fill="#888888" font-family="sans-serif" font-size="10" textLength="3.1787"></text>
<a href="https://github.com/talsma-ict/umldoclet" target="_top" title="https://github.com/talsma-ict/umldoclet" xlink:actuate="onRequest" xlink:href="https://github.com/talsma-ict/umldoclet" xlink:show="new" xlink:title="https://github.com/talsma-ict/umldoclet" xlink:type="simple">
<text x="168.3452" y="536.9229" fill="#888888" font-family="sans-serif" font-size="10" textLength="82.3096">UMLDoclet 2.2.1</text>
</a>
</svg>
