<?xml version="1.0" encoding="UTF-8"?>
<svg width="473px" height="254px" style="background:transparent;height:254px;width:473px" contentStyleType="text/css" preserveAspectRatio="none" version="1.1" viewBox="0 0 473 254" xmlns="http://www.w3.org/2000/svg" xmlns:xlink="http://www.w3.org/1999/xlink" zoomAndPan="magnify">
<a href="APIReaders.GetUvIndexForLocation.html" target="_top" title="APIReaders.GetUvIndexForLocation.html" xlink:actuate="onRequest" xlink:href="APIReaders.GetUvIndexForLocation.html" xlink:show="new" xlink:title="APIReaders.GetUvIndexForLocation.html" xlink:type="simple">
<g id="a">
<rect id="b" x="6" y="110" width="434.28" height="119.12" rx="2.5" ry="2.5" fill="#F1F1F1" stroke="#181818" stroke-width=".5" codeLine="13"/>
<ellipse cx="94.806" cy="128.97" rx="11" ry="11" fill="#ADD1B2" stroke="#181818"/>
<path d="m97.774 134.61q-0.5781 0.2969-1.2187 0.4375-0.6407 0.1562-1.3438 0.1562-2.5 0-3.8281-1.6406-1.3125-1.6562-1.3125-4.7812t1.3125-4.7813q1.3281-1.6562 3.8281-1.6562 0.7031 0 1.3438 0.1562 0.6562 0.1563 1.2187 0.4531v2.7188q-0.625-0.5781-1.2187-0.8438-0.5938-0.2812-1.2188-0.2812-1.3437 0-2.0312 1.0781-0.6875 1.0625-0.6875 3.1563 0 2.0937 0.6875 3.1718 0.6875 1.0625 2.0312 1.0625 0.625 0 1.2188-0.2656 0.5937-0.2812 1.2187-0.8594v2.7188z"/>
<text x="115.3057" y="127.9951" fill="#000000" font-family="sans-serif" font-size="14" textLength="248.1719">APIReaders.GetUvIndexForLocation</text>
<text x="116.335" y="140.5791" fill="#000000" font-family="sans-serif" font-size="10" textLength="246.1133">de.kaffeemitkoffein.tinyweatherforecastgermany</text>
<line x1="7" x2="439.28" y1="147.94" y2="147.94" stroke="#181818" stroke-width=".5"/>
<ellipse cx="17" cy="161.59" rx="3" ry="3" fill="none" stroke="#038048"/>
<text x="26" y="164.9326" fill="#000000" font-family="sans-serif" font-size="14" text-decoration="underline" textLength="195.5557">GEOACCURACY_UVI: double</text>
<line x1="7" x2="439.28" y1="172.23" y2="172.23" stroke="#181818" stroke-width=".5"/>
<ellipse cx="17" cy="185.88" rx="3" ry="3" fill="#84BE84" stroke="#038048"/>
<text x="26" y="189.2295" fill="#000000" font-family="sans-serif" font-size="14" textLength="408.2832">GetUvIndexForLocation(Context, WeatherLocation, long[])</text>
<ellipse cx="17" cy="202.18" rx="3" ry="3" fill="#84BE84" stroke="#038048"/>
<text x="26" y="205.5264" fill="#000000" font-family="sans-serif" font-size="14" textLength="204.7432">onFinished(long[], int[]): void</text>
<ellipse cx="17" cy="218.48" rx="3" ry="3" fill="#84BE84" stroke="#038048"/>
<text x="26" y="221.8232" fill="#000000" font-family="sans-serif" font-size="14" textLength="73.2197">run(): void</text>
</g>
</a>
<g id="c">
<rect id="d" x="70.5" y="12" width="99.22" height="62.234" rx="2.5" ry="2.5" fill="#F1F1F1" stroke="#181818" stroke-width=".5" codeLine="20"/>
<ellipse cx="85.907" cy="30.969" rx="11" ry="11" fill="#B4A7E5" stroke="#181818"/>
<path d="m81.829 26.734v-2.1563h7.3906v2.1563h-2.4687v8.0781h2.4687v2.1563h-7.3906v-2.1563h2.4688v-8.0781h-2.4688z"/>
<text x="99.9974" y="29.9951" fill="#000000" font-family="sans-serif" font-size="14" font-style="italic" textLength="66.3154">Runnable</text>
<text x="110.2938" y="42.5791" fill="#000000" font-family="sans-serif" font-size="10" font-style="italic" textLength="45.7227">java.lang</text>
<line x1="71.5" x2="168.72" y1="49.938" y2="49.938" stroke="#181818" stroke-width=".5"/>
<ellipse cx="81.5" cy="63.586" rx="3" ry="3" fill="#84BE84" stroke="#038048"/>
<text x="90.5" y="66.9326" fill="#000000" font-family="sans-serif" font-size="14" font-style="italic" textLength="73.2197">run(): void</text>
</g>
<a href="APIReaders.html" target="_top" title="APIReaders.html" xlink:actuate="onRequest" xlink:href="APIReaders.html" xlink:show="new" xlink:title="APIReaders.html" xlink:type="simple">
<g id="e">
<rect id="f" x="188" y="24" width="278.11" height="37.938" rx="2.5" ry="2.5" fill="#F1F1F1" stroke="#181818" stroke-width=".5" codeLine="23"/>
<ellipse cx="203" cy="42.969" rx="11" ry="11" fill="#ADD1B2" stroke="#181818"/>
<path d="m205.97 48.609q-0.5782 0.2969-1.2188 0.4375-0.6406 0.1562-1.3437 0.1562-2.5 0-3.8282-1.6406-1.3125-1.6562-1.3125-4.7812t1.3125-4.7813q1.3282-1.6562 3.8282-1.6562 0.7031 0 1.3437 0.1562 0.6563 0.1563 1.2188 0.4531v2.7188q-0.625-0.5781-1.2188-0.8438-0.5937-0.2812-1.2187-0.2812-1.3438 0-2.0313 1.0781-0.6875 1.0625-0.6875 3.1563 0 2.0937 0.6875 3.1718 0.6875 1.0625 2.0313 1.0625 0.625 0 1.2187-0.2656 0.5938-0.2812 1.2188-0.8594v2.7188z"/>
<text x="300.2476" y="41.9951" fill="#000000" font-family="sans-serif" font-size="14" textLength="79.6182">APIReaders</text>
<text x="217" y="54.5791" fill="#000000" font-family="sans-serif" font-size="10" textLength="246.1133">de.kaffeemitkoffein.tinyweatherforecastgermany</text>
</g>
</a>
<polygon points="144.93 74.138 151.78 91.832 161.03 84.182" fill="none" stroke="#181818"/>
<path d="m156.41 88.007c8.9306 10.795 7.855 9.4946 18.094 21.872" fill="none" stroke="#181818" stroke-dasharray="7.0,7.0"/>
<ellipse cx="306.75" cy="68.243" rx="8" ry="8" fill="#fff" stroke="#181818"/>
<line x1="301.62" x2="311.88" y1="74.383" y2="62.103" stroke="#181818"/>
<line x1="300.61" x2="312.89" y1="63.114" y2="73.372" stroke="#181818"/>
<path d="m301.62 74.383c-10.591 12.679-15.13 18.112-29.615 35.453" fill="none" stroke="#181818"/>
<text x="230.9106" y="232.2822" fill="#888888" font-family="sans-serif" font-size="10" textLength="3.1787"></text>
<a href="https://github.com/talsma-ict/umldoclet" target="_top" title="https://github.com/talsma-ict/umldoclet" xlink:actuate="onRequest" xlink:href="https://github.com/talsma-ict/umldoclet" xlink:show="new" xlink:title="https://github.com/talsma-ict/umldoclet" xlink:type="simple">
<text x="191.3452" y="243.9229" fill="#888888" font-family="sans-serif" font-size="10" textLength="82.3096">UMLDoclet 2.2.1</text>
</a>
</svg>
