<?xml version="1.0" encoding="UTF-8"?>
<svg width="454px" height="352px" style="background:transparent;height:352px;width:454px" contentStyleType="text/css" preserveAspectRatio="none" version="1.1" viewBox="0 0 454 352" xmlns="http://www.w3.org/2000/svg" xmlns:xlink="http://www.w3.org/1999/xlink" zoomAndPan="magnify">
<a href="APIReaders.WeatherWarningsRunnable.html" target="_top" title="APIReaders.WeatherWarningsRunnable.html" xlink:actuate="onRequest" xlink:href="APIReaders.WeatherWarningsRunnable.html" xlink:show="new" xlink:title="APIReaders.WeatherWarningsRunnable.html" xlink:type="simple">
<g id="a">
<rect id="b" x="6" y="110" width="395.87" height="216.91" rx="2.5" ry="2.5" fill="#F1F1F1" stroke="#181818" stroke-width=".5" codeLine="13"/>
<ellipse cx="61.61" cy="128.97" rx="11" ry="11" fill="#ADD1B2" stroke="#181818"/>
<path d="m64.579 134.61q-0.5781 0.2969-1.2187 0.4375-0.6407 0.1562-1.3438 0.1562-2.5 0-3.8281-1.6406-1.3125-1.6562-1.3125-4.7812t1.3125-4.7813q1.3281-1.6562 3.8281-1.6562 0.7031 0 1.3438 0.1562 0.6562 0.1563 1.2187 0.4531v2.7188q-0.625-0.5781-1.2187-0.8438-0.5938-0.2812-1.2188-0.2812-1.3437 0-2.0312 1.0781-0.6875 1.0625-0.6875 3.1563 0 2.0937 0.6875 3.1718 0.6875 1.0625 2.0312 1.0625 0.625 0 1.2188-0.2656 0.5937-0.2812 1.2187-0.8594v2.7188z"/>
<text x="82.1104" y="127.9951" fill="#000000" font-family="sans-serif" font-size="14" textLength="276.1445">APIReaders.WeatherWarningsRunnable</text>
<text x="97.126" y="140.5791" fill="#000000" font-family="sans-serif" font-size="10" textLength="246.1133">de.kaffeemitkoffein.tinyweatherforecastgermany</text>
<line x1="7" x2="400.87" y1="147.94" y2="147.94" stroke="#181818" stroke-width=".5"/>
<ellipse cx="17" cy="161.59" rx="3" ry="3" fill="none" stroke="#038048"/>
<text x="26" y="164.9326" fill="#000000" font-family="sans-serif" font-size="14" textLength="117.2705">context: Context</text>
<ellipse cx="17" cy="177.88" rx="3" ry="3" fill="none" stroke="#038048"/>
<text x="26" y="181.2295" fill="#000000" font-family="sans-serif" font-size="14" textLength="245.2256">weatherLocation: WeatherLocation</text>
<line x1="7" x2="400.87" y1="188.53" y2="188.53" stroke="#181818" stroke-width=".5"/>
<ellipse cx="17" cy="202.18" rx="3" ry="3" fill="#84BE84" stroke="#038048"/>
<text x="26" y="205.5264" fill="#000000" font-family="sans-serif" font-size="14" textLength="258.0908">WeatherWarningsRunnable(Context)</text>
<ellipse cx="17" cy="218.48" rx="3" ry="3" fill="#84BE84" stroke="#038048"/>
<text x="26" y="221.8232" fill="#000000" font-family="sans-serif" font-size="14" textLength="273.041">getTimeStampFromString(String): long</text>
<ellipse cx="17" cy="234.77" rx="3" ry="3" fill="#84BE84" stroke="#038048"/>
<text x="26" y="238.1201" fill="#000000" font-family="sans-serif" font-size="14" textLength="338.7275">doInBackground(): ArrayList&lt;WeatherWarning&gt;</text>
<ellipse cx="17" cy="251.07" rx="3" ry="3" fill="#84BE84" stroke="#038048"/>
<text x="26" y="254.417" fill="#000000" font-family="sans-serif" font-size="14" textLength="101.3564">onStart(): void</text>
<ellipse cx="17" cy="267.37" rx="3" ry="3" fill="#84BE84" stroke="#038048"/>
<text x="26" y="270.7139" fill="#000000" font-family="sans-serif" font-size="14" textLength="173.8721">onNegativeResult(): void</text>
<ellipse cx="17" cy="283.66" rx="3" ry="3" fill="#84BE84" stroke="#038048"/>
<text x="26" y="287.0107" fill="#000000" font-family="sans-serif" font-size="14" textLength="165.5117">onPositiveResult(): void</text>
<ellipse cx="17" cy="299.96" rx="3" ry="3" fill="#84BE84" stroke="#038048"/>
<text x="26" y="303.3076" fill="#000000" font-family="sans-serif" font-size="14" textLength="369.8652">onPositiveResult(ArrayList&lt;WeatherWarning&gt;): void</text>
<ellipse cx="17" cy="316.26" rx="3" ry="3" fill="#84BE84" stroke="#038048"/>
<text x="26" y="319.6045" fill="#000000" font-family="sans-serif" font-size="14" textLength="73.2197">run(): void</text>
</g>
</a>
<g id="c">
<rect id="d" x="51.5" y="12" width="99.22" height="62.234" rx="2.5" ry="2.5" fill="#F1F1F1" stroke="#181818" stroke-width=".5" codeLine="26"/>
<ellipse cx="66.907" cy="30.969" rx="11" ry="11" fill="#B4A7E5" stroke="#181818"/>
<path d="m62.829 26.734v-2.1563h7.3906v2.1563h-2.4687v8.0781h2.4687v2.1563h-7.3906v-2.1563h2.4688v-8.0781h-2.4688z"/>
<text x="80.9974" y="29.9951" fill="#000000" font-family="sans-serif" font-size="14" font-style="italic" textLength="66.3154">Runnable</text>
<text x="91.2938" y="42.5791" fill="#000000" font-family="sans-serif" font-size="10" font-style="italic" textLength="45.7227">java.lang</text>
<line x1="52.5" x2="149.72" y1="49.938" y2="49.938" stroke="#181818" stroke-width=".5"/>
<ellipse cx="62.5" cy="63.586" rx="3" ry="3" fill="#84BE84" stroke="#038048"/>
<text x="71.5" y="66.9326" fill="#000000" font-family="sans-serif" font-size="14" font-style="italic" textLength="73.2197">run(): void</text>
</g>
<a href="APIReaders.html" target="_top" title="APIReaders.html" xlink:actuate="onRequest" xlink:href="APIReaders.html" xlink:show="new" xlink:title="APIReaders.html" xlink:type="simple">
<g id="e">
<rect id="f" x="169" y="24" width="278.11" height="37.938" rx="2.5" ry="2.5" fill="#F1F1F1" stroke="#181818" stroke-width=".5" codeLine="29"/>
<ellipse cx="184" cy="42.969" rx="11" ry="11" fill="#ADD1B2" stroke="#181818"/>
<path d="m186.97 48.609q-0.5782 0.2969-1.2188 0.4375-0.6406 0.1562-1.3437 0.1562-2.5 0-3.8282-1.6406-1.3125-1.6562-1.3125-4.7812t1.3125-4.7813q1.3282-1.6562 3.8282-1.6562 0.7031 0 1.3437 0.1562 0.6563 0.1563 1.2188 0.4531v2.7188q-0.625-0.5781-1.2188-0.8438-0.5937-0.2812-1.2187-0.2812-1.3438 0-2.0313 1.0781-0.6875 1.0625-0.6875 3.1563 0 2.0937 0.6875 3.1718 0.6875 1.0625 2.0313 1.0625 0.625 0 1.2187-0.2656 0.5938-0.2812 1.2188-0.8594v2.7188z"/>
<text x="281.2476" y="41.9951" fill="#000000" font-family="sans-serif" font-size="14" textLength="79.6182">APIReaders</text>
<text x="198" y="54.5791" fill="#000000" font-family="sans-serif" font-size="10" textLength="246.1133">de.kaffeemitkoffein.tinyweatherforecastgermany</text>
</g>
</a>
<polygon points="118.94 74.221 122.97 92.762 133.29 86.636" fill="none" stroke="#181818"/>
<path d="m128.13 89.699c6.1672 10.388 4.2829 7.2144 11.98 20.18" fill="none" stroke="#181818" stroke-dasharray="7.0,7.0"/>
<ellipse cx="292.95" cy="69.101" rx="8" ry="8" fill="#fff" stroke="#181818"/>
<line x1="288.84" x2="297.07" y1="75.963" y2="62.24" stroke="#181818"/>
<line x1="286.09" x2="299.82" y1="64.988" y2="73.214" stroke="#181818"/>
<path d="m288.84 75.963c-7.249 12.093-9.1953 15.34-20.17 33.648" fill="none" stroke="#181818"/>
<text x="221.4106" y="330.2822" fill="#888888" font-family="sans-serif" font-size="10" textLength="3.1787"></text>
<a href="https://github.com/talsma-ict/umldoclet" target="_top" title="https://github.com/talsma-ict/umldoclet" xlink:actuate="onRequest" xlink:href="https://github.com/talsma-ict/umldoclet" xlink:show="new" xlink:title="https://github.com/talsma-ict/umldoclet" xlink:type="simple">
<text x="181.8452" y="341.9229" fill="#888888" font-family="sans-serif" font-size="10" textLength="82.3096">UMLDoclet 2.2.1</text>
</a>
</svg>
