<?xml version="1.0" encoding="UTF-8"?>
<svg width="301px" height="255px" style="background:transparent;height:255px;width:301px" contentStyleType="text/css" preserveAspectRatio="none" version="1.1" viewBox="0 0 301 255" xmlns="http://www.w3.org/2000/svg" xmlns:xlink="http://www.w3.org/1999/xlink" zoomAndPan="magnify">
<a href="Areas.AreaDatabaseProgress.html" target="_top" title="Areas.AreaDatabaseProgress.html" xlink:actuate="onRequest" xlink:href="Areas.AreaDatabaseProgress.html" xlink:show="new" xlink:title="Areas.AreaDatabaseProgress.html" xlink:type="simple">
<g id="a">
<rect id="b" x="6" y="86" width="288.56" height="143.72" rx="2.5" ry="2.5" fill="#F1F1F1" stroke="#181818" stroke-width=".5" codeLine="13"/>
<ellipse cx="25.702" cy="104.97" rx="11" ry="11" fill="#ADD1B2" stroke="#181818"/>
<path d="m28.67 110.61q-0.5782 0.2969-1.2188 0.4375-0.6406 0.1562-1.3437 0.1562-2.5 0-3.8282-1.6406-1.3125-1.6562-1.3125-4.7812t1.3125-4.7813q1.3282-1.6562 3.8282-1.6562 0.7031 0 1.3437 0.1562 0.6563 0.1563 1.2188 0.4531v2.7188q-0.625-0.5781-1.2188-0.8438-0.5937-0.2812-1.2187-0.2812-1.3438 0-2.0313 1.0781-0.6875 1.0625-0.6875 3.1563 0 2.0937 0.6875 3.1718 0.6875 1.0625 2.0313 1.0625 0.625 0 1.2187-0.2656 0.5938-0.2812 1.2188-0.8594v2.7188z"/>
<text x="61.7016" y="103.9951" fill="#000000" font-family="sans-serif" font-size="14" textLength="204.2031">Areas.AreaDatabaseProgress</text>
<text x="40.7465" y="116.5791" fill="#000000" font-family="sans-serif" font-size="10" textLength="246.1133">de.kaffeemitkoffein.tinyweatherforecastgermany</text>
<line x1="7" x2="293.56" y1="123.94" y2="123.94" stroke="#181818" stroke-width=".5"/>
<ellipse cx="17" cy="137.59" rx="3" ry="3" fill="#84BE84" stroke="#038048"/>
<text x="26" y="140.9326" fill="#000000" font-family="sans-serif" font-size="14" textLength="200.6553">setProgress(int, String): void</text>
<ellipse cx="17" cy="153.88" rx="3" ry="3" fill="#84BE84" stroke="#038048"/>
<text x="26" y="157.2295" fill="#000000" font-family="sans-serif" font-size="14" textLength="121.9395">getProgress(): int</text>
<ellipse cx="17" cy="170.18" rx="3" ry="3" fill="#84BE84" stroke="#038048"/>
<text x="26" y="173.5264" fill="#000000" font-family="sans-serif" font-size="14" textLength="115.8008">getText(): String</text>
<ellipse cx="17" cy="186.48" rx="3" ry="3" fill="#84BE84" stroke="#038048"/>
<text x="26" y="189.8232" fill="#000000" font-family="sans-serif" font-size="14" textLength="185.083">setRunning(boolean): void</text>
<ellipse cx="17" cy="202.77" rx="3" ry="3" fill="#84BE84" stroke="#038048"/>
<text x="26" y="206.1201" fill="#000000" font-family="sans-serif" font-size="14" textLength="145.2432">isRunning(): boolean</text>
<ellipse cx="17" cy="219.07" rx="3" ry="3" fill="#84BE84" stroke="#038048"/>
<text x="26" y="222.417" fill="#000000" font-family="sans-serif" font-size="14" text-decoration="underline" textLength="262.5615">getInstance(): AreaDatabaseProgress</text>
</g>
</a>
<a href="Areas.html" target="_top" title="Areas.html" xlink:actuate="onRequest" xlink:href="Areas.html" xlink:show="new" xlink:title="Areas.html" xlink:type="simple">
<g id="c">
<rect id="d" x="11.5" y="12" width="278.11" height="37.938" rx="2.5" ry="2.5" fill="#F1F1F1" stroke="#181818" stroke-width=".5" codeLine="22"/>
<ellipse cx="26.5" cy="30.969" rx="11" ry="11" fill="#ADD1B2" stroke="#181818"/>
<path d="m29.469 36.609q-0.5782 0.2969-1.2188 0.4375-0.6406 0.1562-1.3437 0.1562-2.5 0-3.8282-1.6406-1.3125-1.6562-1.3125-4.7812t1.3125-4.7813q1.3282-1.6562 3.8282-1.6562 0.7031 0 1.3437 0.1562 0.6563 0.1563 1.2188 0.4531v2.7188q-0.625-0.5781-1.2188-0.8438-0.5937-0.2812-1.2187-0.2812-1.3438 0-2.0313 1.0781-0.6875 1.0625-0.6875 3.1563 0 2.0937 0.6875 3.1718 0.6875 1.0625 2.0313 1.0625 0.625 0 1.2187-0.2656 0.5938-0.2812 1.2188-0.8594v2.7188z"/>
<text x="143.647" y="29.9951" fill="#000000" font-family="sans-serif" font-size="14" textLength="39.8193">Areas</text>
<text x="40.5" y="42.5791" fill="#000000" font-family="sans-serif" font-size="10" textLength="246.1133">de.kaffeemitkoffein.tinyweatherforecastgermany</text>
</g>
</a>
<ellipse cx="150.5" cy="58.176" rx="8" ry="8" fill="#fff" stroke="#181818"/>
<line x1="150.5" x2="150.5" y1="66.176" y2="50.176" stroke="#181818"/>
<line x1="142.5" x2="158.5" y1="58.176" y2="58.176" stroke="#181818"/>
<path d="m150.5 66.176v19.708" fill="none" stroke="#181818"/>
<text x="145.4106" y="233.2822" fill="#888888" font-family="sans-serif" font-size="10" textLength="3.1787"></text>
<a href="https://github.com/talsma-ict/umldoclet" target="_top" title="https://github.com/talsma-ict/umldoclet" xlink:actuate="onRequest" xlink:href="https://github.com/talsma-ict/umldoclet" xlink:show="new" xlink:title="https://github.com/talsma-ict/umldoclet" xlink:type="simple">
<text x="105.8452" y="244.9229" fill="#888888" font-family="sans-serif" font-size="10" textLength="82.3096">UMLDoclet 2.2.1</text>
</a>
</svg>
