<?xml version="1.0" encoding="UTF-8"?>
<svg width="296px" height="148px" style="background:transparent;height:148px;width:296px" contentStyleType="text/css" preserveAspectRatio="none" version="1.1" viewBox="0 0 296 148" xmlns="http://www.w3.org/2000/svg" xmlns:xlink="http://www.w3.org/1999/xlink" zoomAndPan="magnify">
<a href="CreateAreasDatabaseService.html" target="_top" title="CreateAreasDatabaseService.html" xlink:actuate="onRequest" xlink:href="CreateAreasDatabaseService.html" xlink:show="new" xlink:title="CreateAreasDatabaseService.html" xlink:type="simple">
<g id="a">
<rect id="b" x="6" y="12" width="283.71" height="111.12" rx="2.5" ry="2.5" fill="#F1F1F1" stroke="#181818" stroke-width=".5" codeLine="13"/>
<ellipse cx="23.518" cy="30.969" rx="11" ry="11" fill="#ADD1B2" stroke="#181818"/>
<path d="m26.486 36.609q-0.5781 0.2969-1.2188 0.4375-0.6406 0.1562-1.3437 0.1562-2.5 0-3.8281-1.6406-1.3125-1.6562-1.3125-4.7812t1.3125-4.7813q1.3281-1.6562 3.8281-1.6562 0.7031 0 1.3437 0.1562 0.6563 0.1563 1.2188 0.4531v2.7188q-0.625-0.5781-1.2188-0.8438-0.5937-0.2812-1.2187-0.2812-1.3438 0-2.0313 1.0781-0.6875 1.0625-0.6875 3.1563 0 2.0937 0.6875 3.1718 0.6875 1.0625 2.0313 1.0625 0.625 0 1.2187-0.2656 0.5938-0.2812 1.2188-0.8594v2.7188z"/>
<text x="58.54" y="29.9951" fill="#000000" font-family="sans-serif" font-size="14" textLength="205.1875">CreateAreasDatabaseService</text>
<text x="38.0771" y="42.5791" fill="#000000" font-family="sans-serif" font-size="10" textLength="246.1133">de.kaffeemitkoffein.tinyweatherforecastgermany</text>
<line x1="7" x2="288.71" y1="49.938" y2="49.938" stroke="#181818" stroke-width=".5"/>
<ellipse cx="17" cy="63.586" rx="3" ry="3" fill="#84BE84" stroke="#038048"/>
<text x="26" y="66.9326" fill="#000000" font-family="sans-serif" font-size="14" textLength="113.9824">onCreate(): void</text>
<ellipse cx="17" cy="79.883" rx="3" ry="3" fill="#84BE84" stroke="#038048"/>
<text x="26" y="83.2295" fill="#000000" font-family="sans-serif" font-size="14" textLength="257.708">onStartCommand(Intent, int, int): int</text>
<ellipse cx="17" cy="96.18" rx="3" ry="3" fill="#84BE84" stroke="#038048"/>
<text x="26" y="99.5264" fill="#000000" font-family="sans-serif" font-size="14" textLength="121.9395">onDestroy(): void</text>
<ellipse cx="17" cy="112.48" rx="3" ry="3" fill="#84BE84" stroke="#038048"/>
<text x="26" y="115.8232" fill="#000000" font-family="sans-serif" font-size="14" textLength="160.002">onBind(Intent): IBinder</text>
</g>
</a>
<text x="142.9106" y="126.2822" fill="#888888" font-family="sans-serif" font-size="10" textLength="3.1787"></text>
<a href="https://github.com/talsma-ict/umldoclet" target="_top" title="https://github.com/talsma-ict/umldoclet" xlink:actuate="onRequest" xlink:href="https://github.com/talsma-ict/umldoclet" xlink:show="new" xlink:title="https://github.com/talsma-ict/umldoclet" xlink:type="simple">
<text x="103.3452" y="137.9229" fill="#888888" font-family="sans-serif" font-size="10" textLength="82.3096">UMLDoclet 2.2.1</text>
</a>
</svg>
