<?xml version="1.0" encoding="UTF-8"?>
<svg width="516px" height="849px" style="background:transparent;height:849px;width:516px" contentStyleType="text/css" preserveAspectRatio="none" version="1.1" viewBox="0 0 516 849" xmlns="http://www.w3.org/2000/svg" xmlns:xlink="http://www.w3.org/1999/xlink" zoomAndPan="magnify">
<a href="DataStorage.html" target="_top" title="DataStorage.html" xlink:actuate="onRequest" xlink:href="DataStorage.html" xlink:show="new" xlink:title="DataStorage.html" xlink:type="simple">
<g id="a">
<rect id="b" x="6" y="12" width="503.81" height="738.41" rx="2.5" ry="2.5" fill="#F1F1F1" stroke="#181818" stroke-width=".5" codeLine="13"/>
<ellipse cx="130.6" cy="30.969" rx="11" ry="11" fill="#ADD1B2" stroke="#181818"/>
<path d="m133.57 36.609q-0.5782 0.2969-1.2188 0.4375-0.6406 0.1562-1.3437 0.1562-2.5 0-3.8282-1.6406-1.3125-1.6562-1.3125-4.7812t1.3125-4.7813q1.3282-1.6562 3.8282-1.6562 0.7031 0 1.3437 0.1562 0.6563 0.1563 1.2188 0.4531v2.7188q-0.625-0.5781-1.2188-0.8438-0.5937-0.2812-1.2187-0.2812-1.3438 0-2.0313 1.0781-0.6875 1.0625-0.6875 3.1563 0 2.0937 0.6875 3.1718 0.6875 1.0625 2.0313 1.0625 0.625 0 1.2187-0.2656 0.5938-0.2812 1.2188-0.8594v2.7188z"/>
<text x="230.0537" y="29.9951" fill="#000000" font-family="sans-serif" font-size="14" textLength="88.2041">DataStorage</text>
<text x="151.0991" y="42.5791" fill="#000000" font-family="sans-serif" font-size="10" textLength="246.1133">de.kaffeemitkoffein.tinyweatherforecastgermany</text>
<line x1="7" x2="508.81" y1="49.938" y2="49.938" stroke="#181818" stroke-width=".5"/>
<ellipse cx="17" cy="63.586" rx="3" ry="3" fill="none" stroke="#038048"/>
<text x="26" y="66.9326" fill="#000000" font-family="sans-serif" font-size="14" text-decoration="underline" textLength="201.5508">DATASTORAGE_STATION: int</text>
<ellipse cx="17" cy="79.883" rx="3" ry="3" fill="none" stroke="#038048"/>
<text x="26" y="83.2295" fill="#000000" font-family="sans-serif" font-size="14" text-decoration="underline" textLength="175.1982">DATASTORAGE_TEST: int</text>
<ellipse cx="17" cy="96.18" rx="3" ry="3" fill="none" stroke="#038048"/>
<text x="26" y="99.5264" fill="#000000" font-family="sans-serif" font-size="14" text-decoration="underline" textLength="271.6943">DATASTORAGE_POLLENREGION_ID: int</text>
<ellipse cx="17" cy="112.48" rx="3" ry="3" fill="none" stroke="#038048"/>
<text x="26" y="115.8232" fill="#000000" font-family="sans-serif" font-size="14" text-decoration="underline" textLength="307.9932">DATASTORAGE_POLLENPARTREGION_ID: int</text>
<ellipse cx="17" cy="128.77" rx="3" ry="3" fill="none" stroke="#038048"/>
<text x="26" y="132.1201" fill="#000000" font-family="sans-serif" font-size="14" text-decoration="underline" textLength="351.5449">DATASTORAGE_POLLENREGION_DESCRIPTION: int</text>
<ellipse cx="17" cy="145.07" rx="3" ry="3" fill="none" stroke="#038048"/>
<text x="26" y="148.417" fill="#000000" font-family="sans-serif" font-size="14" text-decoration="underline" textLength="225.1279">DATASTORAGE_LASTGPSFIX: int</text>
<ellipse cx="17" cy="161.37" rx="3" ry="3" fill="none" stroke="#038048"/>
<text x="26" y="164.7139" fill="#000000" font-family="sans-serif" font-size="14" text-decoration="underline" textLength="324.9053">DATASTORAGE_NOTIFICATION_IDENTIFIER: int</text>
<ellipse cx="17" cy="177.66" rx="3" ry="3" fill="none" stroke="#038048"/>
<text x="26" y="181.0107" fill="#000000" font-family="sans-serif" font-size="14" text-decoration="underline" textLength="394.9941">DATASTORAGE_LAST_NOTIFICATIONS_UPDATE_TIME: int</text>
<ellipse cx="17" cy="193.96" rx="3" ry="3" fill="none" stroke="#038048"/>
<text x="26" y="197.3076" fill="#000000" font-family="sans-serif" font-size="14" text-decoration="underline" textLength="291.7646">DATASTORAGE_NC_CHANNEL_DETAIL: int</text>
<ellipse cx="17" cy="210.26" rx="3" ry="3" fill="none" stroke="#038048"/>
<text x="26" y="213.6045" fill="#000000" font-family="sans-serif" font-size="14" text-decoration="underline" textLength="313.7832">DATASTORAGE_WEATHERUPDATEDFLAG: int</text>
<ellipse cx="17" cy="226.55" rx="3" ry="3" fill="none" stroke="#038048"/>
<text x="26" y="229.9014" fill="#000000" font-family="sans-serif" font-size="14" text-decoration="underline" textLength="305.1152">DATASTORAGE_RADAR_LASTDATAPOLL: int</text>
<ellipse cx="17" cy="242.85" rx="3" ry="3" fill="none" stroke="#038048"/>
<text x="26" y="246.1982" fill="#000000" font-family="sans-serif" font-size="14" text-decoration="underline" textLength="331.5088">DATASTORAGE_VIEWS_LAST_UPDATE_TIME: int</text>
<ellipse cx="17" cy="259.15" rx="3" ry="3" fill="none" stroke="#038048"/>
<text x="26" y="262.4951" fill="#000000" font-family="sans-serif" font-size="14" text-decoration="underline" textLength="352.0098">DATASTORAGE_GADGETBRIDGE_LASTUPDATE: int</text>
<ellipse cx="17" cy="275.45" rx="3" ry="3" fill="none" stroke="#038048"/>
<text x="26" y="278.792" fill="#000000" font-family="sans-serif" font-size="14" text-decoration="underline" textLength="342.5488">DATASTORAGE_POLLENREGION_ID_DEFAULT: int</text>
<ellipse cx="17" cy="291.74" rx="3" ry="3" fill="none" stroke="#038048"/>
<text x="26" y="295.0889" fill="#000000" font-family="sans-serif" font-size="14" text-decoration="underline" textLength="378.8477">DATASTORAGE_POLLENPARTREGION_ID_DEFAULT: int</text>
<ellipse cx="17" cy="308.04" rx="3" ry="3" fill="none" stroke="#038048"/>
<text x="26" y="311.3857" fill="#000000" font-family="sans-serif" font-size="14" text-decoration="underline" textLength="445.9287">DATASTORAGE_POLLENREGION_DESCRIPTION_DEFAULT: String</text>
<ellipse cx="17" cy="324.34" rx="3" ry="3" fill="none" stroke="#038048"/>
<text x="26" y="327.6826" fill="#000000" font-family="sans-serif" font-size="14" text-decoration="underline" textLength="307.9453">DATASTORAGE_LASTGPSFIX_DEFAULT: long</text>
<ellipse cx="17" cy="340.63" rx="3" ry="3" fill="none" stroke="#038048"/>
<text x="26" y="343.9795" fill="#000000" font-family="sans-serif" font-size="14" text-decoration="underline" textLength="395.7598">DATASTORAGE_NOTIFICATION_IDENTIFIER_DEFAULT: int</text>
<ellipse cx="17" cy="356.93" rx="3" ry="3" fill="none" stroke="#038048"/>
<text x="26" y="360.2764" fill="#000000" font-family="sans-serif" font-size="14" text-decoration="underline" textLength="477.8115">DATASTORAGE_LAST_NOTIFICATIONS_UPDATE_TIME_DEFAULT: long</text>
<ellipse cx="17" cy="373.23" rx="3" ry="3" fill="none" stroke="#038048"/>
<text x="26" y="376.5732" fill="#000000" font-family="sans-serif" font-size="14" text-decoration="underline" textLength="374.582">DATASTORAGE_NC_CHANNEL_DETAIL_DEFAULT: long</text>
<ellipse cx="17" cy="389.52" rx="3" ry="3" fill="none" stroke="#038048"/>
<text x="26" y="392.8701" fill="#000000" font-family="sans-serif" font-size="14" text-decoration="underline" textLength="384.6377">DATASTORAGE_WEATHERUPDATEDFLAG_DEFAULT: int</text>
<ellipse cx="17" cy="405.82" rx="3" ry="3" fill="none" stroke="#038048"/>
<text x="26" y="409.167" fill="#000000" font-family="sans-serif" font-size="14" text-decoration="underline" textLength="387.9326">DATASTORAGE_RADAR_LASTDATAPOLL_DEFAULT: long</text>
<ellipse cx="17" cy="422.12" rx="3" ry="3" fill="none" stroke="#038048"/>
<text x="26" y="425.4639" fill="#000000" font-family="sans-serif" font-size="14" text-decoration="underline" textLength="414.3262">DATASTORAGE_VIEWS_LAST_UPDATE_TIME_DEFAULT: long</text>
<ellipse cx="17" cy="438.41" rx="3" ry="3" fill="none" stroke="#038048"/>
<text x="26" y="441.7607" fill="#000000" font-family="sans-serif" font-size="14" text-decoration="underline" textLength="434.8271">DATASTORAGE_GADGETBRIDGE_LASTUPDATE_DEFAULT: long</text>
<line x1="7" x2="508.81" y1="449.06" y2="449.06" stroke="#181818" stroke-width=".5"/>
<ellipse cx="17" cy="462.71" rx="3" ry="3" fill="#84BE84" stroke="#038048"/>
<text x="26" y="466.0576" fill="#000000" font-family="sans-serif" font-size="14" text-decoration="underline" textLength="368.792">readAllPackages(Context): ArrayList&lt;DataPackage&gt;</text>
<ellipse cx="17" cy="479.01" rx="3" ry="3" fill="#84BE84" stroke="#038048"/>
<text x="26" y="482.3545" fill="#000000" font-family="sans-serif" font-size="14" text-decoration="underline" textLength="391.0225">printPackages(Context, ArrayList&lt;DataPackage&gt;): void</text>
<ellipse cx="17" cy="495.3" rx="3" ry="3" fill="#84BE84" stroke="#038048"/>
<text x="26" y="498.6514" fill="#000000" font-family="sans-serif" font-size="14" text-decoration="underline" textLength="318.835">readDataPackage(Context, int): DataPackage</text>
<ellipse cx="17" cy="511.6" rx="3" ry="3" fill="#84BE84" stroke="#038048"/>
<text x="26" y="514.9482" fill="#000000" font-family="sans-serif" font-size="14" text-decoration="underline" textLength="139.3438">clear(Context): void</text>
<ellipse cx="17" cy="527.9" rx="3" ry="3" fill="#84BE84" stroke="#038048"/>
<text x="26" y="531.2451" fill="#000000" font-family="sans-serif" font-size="14" text-decoration="underline" textLength="235.4023">setBlob(Context, int, byte[]): void</text>
<ellipse cx="17" cy="544.2" rx="3" ry="3" fill="#84BE84" stroke="#038048"/>
<text x="26" y="547.542" fill="#000000" font-family="sans-serif" font-size="14" text-decoration="underline" textLength="249.5664">getBlob(Context, int, byte[]): byte[]</text>
<ellipse cx="17" cy="560.49" rx="3" ry="3" fill="#84BE84" stroke="#038048"/>
<text x="26" y="563.8389" fill="#000000" font-family="sans-serif" font-size="14" text-decoration="underline" textLength="228.2861">setFloat(Context, int, float): void</text>
<ellipse cx="17" cy="576.79" rx="3" ry="3" fill="#84BE84" stroke="#038048"/>
<text x="26" y="580.1357" fill="#000000" font-family="sans-serif" font-size="14" text-decoration="underline" textLength="231.7041">getFloat(Context, int, float): float</text>
<ellipse cx="17" cy="593.09" rx="3" ry="3" fill="#84BE84" stroke="#038048"/>
<text x="26" y="596.4326" fill="#000000" font-family="sans-serif" font-size="14" text-decoration="underline" textLength="199.001">setInt(Context, int, int): void</text>
<ellipse cx="17" cy="609.38" rx="3" ry="3" fill="#84BE84" stroke="#038048"/>
<text x="26" y="612.7295" fill="#000000" font-family="sans-serif" font-size="14" text-decoration="underline" textLength="189.2188">getInt(Context, int, int): int</text>
<ellipse cx="17" cy="625.68" rx="3" ry="3" fill="#84BE84" stroke="#038048"/>
<text x="26" y="629.0264" fill="#000000" font-family="sans-serif" font-size="14" text-decoration="underline" textLength="226.5977">setLong(Context, int, long): void</text>
<ellipse cx="17" cy="641.98" rx="3" ry="3" fill="#84BE84" stroke="#038048"/>
<text x="26" y="645.3232" fill="#000000" font-family="sans-serif" font-size="14" text-decoration="underline" textLength="228.7783">getLong(Context, int, long): long</text>
<ellipse cx="17" cy="658.27" rx="3" ry="3" fill="#84BE84" stroke="#038048"/>
<text x="26" y="661.6201" fill="#000000" font-family="sans-serif" font-size="14" text-decoration="underline" textLength="245.8203">setString(Context, int, String): void</text>
<ellipse cx="17" cy="674.57" rx="3" ry="3" fill="#84BE84" stroke="#038048"/>
<text x="26" y="677.917" fill="#000000" font-family="sans-serif" font-size="14" text-decoration="underline" textLength="259.5674">getString(Context, int, String): String</text>
<ellipse cx="17" cy="690.87" rx="3" ry="3" fill="#84BE84" stroke="#038048"/>
<text x="26" y="694.2139" fill="#000000" font-family="sans-serif" font-size="14" text-decoration="underline" textLength="274.9209">setBoolean(Context, int, boolean): void</text>
<ellipse cx="17" cy="707.16" rx="3" ry="3" fill="#84BE84" stroke="#038048"/>
<text x="26" y="710.5107" fill="#000000" font-family="sans-serif" font-size="14" textLength="302.8594">getBoolean(Context, int, boolean): boolean</text>
<ellipse cx="17" cy="723.46" rx="3" ry="3" fill="#84BE84" stroke="#038048"/>
<text x="26" y="726.8076" fill="#000000" font-family="sans-serif" font-size="14" text-decoration="underline" textLength="304.1035">setStation(Context, WeatherLocation): void</text>
<ellipse cx="17" cy="739.76" rx="3" ry="3" fill="#84BE84" stroke="#038048"/>
<text x="26" y="743.1045" fill="#000000" font-family="sans-serif" font-size="14" text-decoration="underline" textLength="349.6172">getSetStationLocation(Context): WeatherLocation</text>
</g>
</a>
<a href="DataStorage.Updates.html" target="_top" title="DataStorage.Updates.html" xlink:actuate="onRequest" xlink:href="DataStorage.Updates.html" xlink:show="new" xlink:title="DataStorage.Updates.html" xlink:type="simple">
<g id="c">
<rect id="d" x="119" y="786" width="278.11" height="37.938" rx="2.5" ry="2.5" fill="#F1F1F1" stroke="#181818" stroke-width=".5" codeLine="57"/>
<ellipse cx="134" cy="804.97" rx="11" ry="11" fill="#ADD1B2" stroke="#181818"/>
<path d="m136.97 810.61q-0.5782 0.2969-1.2188 0.4375-0.6406 0.1562-1.3437 0.1562-2.5 0-3.8282-1.6406-1.3125-1.6562-1.3125-4.7812t1.3125-4.7813q1.3282-1.6562 3.8282-1.6562 0.7031 0 1.3437 0.1562 0.6563 0.1563 1.2188 0.4531v2.7188q-0.625-0.5781-1.2188-0.8438-0.5937-0.2812-1.2187-0.2812-1.3438 0-2.0313 1.0781-0.6875 1.0625-0.6875 3.1563 0 2.0937 0.6875 3.1718 0.6875 1.0625 2.0313 1.0625 0.625 0 1.2187-0.2656 0.5938-0.2812 1.2188-0.8594v2.7188z"/>
<text x="195.7314" y="803.9951" fill="#000000" font-family="sans-serif" font-size="14" textLength="150.6504">DataStorage.Updates</text>
<text x="148" y="816.5791" fill="#000000" font-family="sans-serif" font-size="10" textLength="246.1133">de.kaffeemitkoffein.tinyweatherforecastgermany</text>
</g>
</a>
<ellipse cx="258" cy="758.12" rx="8" ry="8" fill="#fff" stroke="#181818"/>
<line x1="258" x2="258" y1="766.12" y2="750.12" stroke="#181818"/>
<line x1="250" x2="266" y1="758.12" y2="758.12" stroke="#181818"/>
<path d="m258 766.12v19.522" fill="none" stroke="#181818"/>
<text x="252.9106" y="827.2822" fill="#888888" font-family="sans-serif" font-size="10" textLength="3.1787"></text>
<a href="https://github.com/talsma-ict/umldoclet" target="_top" title="https://github.com/talsma-ict/umldoclet" xlink:actuate="onRequest" xlink:href="https://github.com/talsma-ict/umldoclet" xlink:show="new" xlink:title="https://github.com/talsma-ict/umldoclet" xlink:type="simple">
<text x="213.3452" y="838.9229" fill="#888888" font-family="sans-serif" font-size="10" textLength="82.3096">UMLDoclet 2.2.1</text>
</a>
</svg>
