<?xml version="1.0" encoding="UTF-8"?>
<svg width="291px" height="238px" style="background:transparent;height:238px;width:291px" contentStyleType="text/css" preserveAspectRatio="none" version="1.1" viewBox="0 0 291 238" xmlns="http://www.w3.org/2000/svg" xmlns:xlink="http://www.w3.org/1999/xlink" zoomAndPan="magnify">
<a href="DataStorage.Updates.Category.html" target="_top" title="DataStorage.Updates.Category.html" xlink:actuate="onRequest" xlink:href="DataStorage.Updates.Category.html" xlink:show="new" xlink:title="DataStorage.Updates.Category.html" xlink:type="simple">
<g id="a">
<rect id="b" x="6" y="86" width="278.11" height="127.42" rx="2.5" ry="2.5" fill="#F1F1F1" stroke="#181818" stroke-width=".5" codeLine="13"/>
<ellipse cx="21" cy="104.97" rx="11" ry="11" fill="#ADD1B2" stroke="#181818"/>
<path d="m23.969 110.61q-0.5782 0.2969-1.2188 0.4375-0.6406 0.1562-1.3437 0.1562-2.5 0-3.8282-1.6406-1.3125-1.6562-1.3125-4.7812t1.3125-4.7813q1.3282-1.6562 3.8282-1.6562 0.7031 0 1.3437 0.1562 0.6563 0.1563 1.2188 0.4531v2.7188q-0.625-0.5781-1.2188-0.8438-0.5937-0.2812-1.2187-0.2812-1.3438 0-2.0313 1.0781-0.6875 1.0625-0.6875 3.1563 0 2.0937 0.6875 3.1718 0.6875 1.0625 2.0313 1.0625 0.625 0 1.2187-0.2656 0.5938-0.2812 1.2188-0.8594v2.7188z"/>
<text x="48.5313" y="103.9951" fill="#000000" font-family="sans-serif" font-size="14" textLength="219.0508">DataStorage.Updates.Category</text>
<text x="35" y="116.5791" fill="#000000" font-family="sans-serif" font-size="10" textLength="246.1133">de.kaffeemitkoffein.tinyweatherforecastgermany</text>
<line x1="7" x2="283.11" y1="123.94" y2="123.94" stroke="#181818" stroke-width=".5"/>
<ellipse cx="17" cy="137.59" rx="3" ry="3" fill="none" stroke="#038048"/>
<text x="26" y="140.9326" fill="#000000" font-family="sans-serif" font-size="14" text-decoration="underline" textLength="97.3369">WEATHER: int</text>
<ellipse cx="17" cy="153.88" rx="3" ry="3" fill="none" stroke="#038048"/>
<text x="26" y="157.2295" fill="#000000" font-family="sans-serif" font-size="14" text-decoration="underline" textLength="105.376">WARNINGS: int</text>
<ellipse cx="17" cy="170.18" rx="3" ry="3" fill="none" stroke="#038048"/>
<text x="26" y="173.5264" fill="#000000" font-family="sans-serif" font-size="14" text-decoration="underline" textLength="71.8457">TEXTS: int</text>
<ellipse cx="17" cy="186.48" rx="3" ry="3" fill="none" stroke="#038048"/>
<text x="26" y="189.8232" fill="#000000" font-family="sans-serif" font-size="14" text-decoration="underline" textLength="81.7988">POLLEN: int</text>
<ellipse cx="17" cy="202.77" rx="3" ry="3" fill="none" stroke="#038048"/>
<text x="26" y="206.1201" fill="#000000" font-family="sans-serif" font-size="14" text-decoration="underline" textLength="80.8076">LAYERS: int</text>
</g>
</a>
<a href="DataStorage.Updates.html" target="_top" title="DataStorage.Updates.html" xlink:actuate="onRequest" xlink:href="DataStorage.Updates.html" xlink:show="new" xlink:title="DataStorage.Updates.html" xlink:type="simple">
<g id="c">
<rect id="d" x="6" y="12" width="278.11" height="37.938" rx="2.5" ry="2.5" fill="#F1F1F1" stroke="#181818" stroke-width=".5" codeLine="21"/>
<ellipse cx="21" cy="30.969" rx="11" ry="11" fill="#ADD1B2" stroke="#181818"/>
<path d="m23.969 36.609q-0.5782 0.2969-1.2188 0.4375-0.6406 0.1562-1.3437 0.1562-2.5 0-3.8282-1.6406-1.3125-1.6562-1.3125-4.7812t1.3125-4.7813q1.3282-1.6562 3.8282-1.6562 0.7031 0 1.3437 0.1562 0.6563 0.1563 1.2188 0.4531v2.7188q-0.625-0.5781-1.2188-0.8438-0.5937-0.2812-1.2187-0.2812-1.3438 0-2.0313 1.0781-0.6875 1.0625-0.6875 3.1563 0 2.0937 0.6875 3.1718 0.6875 1.0625 2.0313 1.0625 0.625 0 1.2187-0.2656 0.5938-0.2812 1.2188-0.8594v2.7188z"/>
<text x="82.7314" y="29.9951" fill="#000000" font-family="sans-serif" font-size="14" textLength="150.6504">DataStorage.Updates</text>
<text x="35" y="42.5791" fill="#000000" font-family="sans-serif" font-size="10" textLength="246.1133">de.kaffeemitkoffein.tinyweatherforecastgermany</text>
</g>
</a>
<ellipse cx="145" cy="58.203" rx="8" ry="8" fill="#fff" stroke="#181818"/>
<line x1="145" x2="145" y1="66.203" y2="50.203" stroke="#181818"/>
<line x1="137" x2="153" y1="58.203" y2="58.203" stroke="#181818"/>
<path d="m145 66.203v19.784" fill="none" stroke="#181818"/>
<text x="139.9106" y="216.2822" fill="#888888" font-family="sans-serif" font-size="10" textLength="3.1787"></text>
<a href="https://github.com/talsma-ict/umldoclet" target="_top" title="https://github.com/talsma-ict/umldoclet" xlink:actuate="onRequest" xlink:href="https://github.com/talsma-ict/umldoclet" xlink:show="new" xlink:title="https://github.com/talsma-ict/umldoclet" xlink:type="simple">
<text x="100.3452" y="227.9229" fill="#888888" font-family="sans-serif" font-size="10" textLength="82.3096">UMLDoclet 2.2.1</text>
</a>
</svg>
