<?xml version="1.0" encoding="UTF-8"?>
<svg width="538px" height="206px" style="background:transparent;height:206px;width:538px" contentStyleType="text/css" preserveAspectRatio="none" version="1.1" viewBox="0 0 538 206" xmlns="http://www.w3.org/2000/svg" xmlns:xlink="http://www.w3.org/1999/xlink" zoomAndPan="magnify">
<a href="DeviceTweaks.html" target="_top" title="DeviceTweaks.html" xlink:actuate="onRequest" xlink:href="DeviceTweaks.html" xlink:show="new" xlink:title="DeviceTweaks.html" xlink:type="simple">
<g id="a">
<rect id="b" x="6" y="12" width="525.94" height="94.828" rx="2.5" ry="2.5" fill="#F1F1F1" stroke="#181818" stroke-width=".5" codeLine="13"/>
<ellipse cx="141.66" cy="30.969" rx="11" ry="11" fill="#ADD1B2" stroke="#181818"/>
<path d="m144.63 36.609q-0.5781 0.2969-1.2187 0.4375-0.6406 0.1562-1.3438 0.1562-2.5 0-3.8281-1.6406-1.3125-1.6562-1.3125-4.7812t1.3125-4.7813q1.3281-1.6562 3.8281-1.6562 0.7032 0 1.3438 0.1562 0.6562 0.1563 1.2187 0.4531v2.7188q-0.625-0.5781-1.2187-0.8438-0.5938-0.2812-1.2188-0.2812-1.3437 0-2.0312 1.0781-0.6875 1.0625-0.6875 3.1563 0 2.0937 0.6875 3.1718 0.6875 1.0625 2.0312 1.0625 0.625 0 1.2188-0.2656 0.5937-0.2812 1.2187-0.8594v2.7188z"/>
<text x="234.9824" y="29.9951" fill="#000000" font-family="sans-serif" font-size="14" textLength="100.4746">DeviceTweaks</text>
<text x="162.1631" y="42.5791" fill="#000000" font-family="sans-serif" font-size="10" textLength="246.1133">de.kaffeemitkoffein.tinyweatherforecastgermany</text>
<line x1="7" x2="530.94" y1="49.938" y2="49.938" stroke="#181818" stroke-width=".5"/>
<ellipse cx="17" cy="63.586" rx="3" ry="3" fill="#84BE84" stroke="#038048"/>
<text x="26" y="66.9326" fill="#000000" font-family="sans-serif" font-size="14" text-decoration="underline" textLength="320.127">isDarkTextOnOverflowMenuDevice(): boolean</text>
<ellipse cx="17" cy="79.883" rx="3" ry="3" fill="#84BE84" stroke="#038048"/>
<text x="26" y="83.2295" fill="#000000" font-family="sans-serif" font-size="14" text-decoration="underline" textLength="379.8662">confirmPlausibleWidgetSize(Context, int, int, int): int[]</text>
<ellipse cx="17" cy="96.18" rx="3" ry="3" fill="#84BE84" stroke="#038048"/>
<text x="26" y="99.5264" fill="#000000" font-family="sans-serif" font-size="14" text-decoration="underline" textLength="499.9395">confirmPlausibleWidgetSize(Context, int, AppWidgetManager, int): int[]</text>
</g>
</a>
<a href="DeviceTweaks.Widget.html" target="_top" title="DeviceTweaks.Widget.html" xlink:actuate="onRequest" xlink:href="DeviceTweaks.Widget.html" xlink:show="new" xlink:title="DeviceTweaks.Widget.html" xlink:type="simple">
<g id="c">
<rect id="d" x="130" y="143" width="278.11" height="37.938" rx="2.5" ry="2.5" fill="#F1F1F1" stroke="#181818" stroke-width=".5" codeLine="18"/>
<ellipse cx="145" cy="161.97" rx="11" ry="11" fill="#ADD1B2" stroke="#181818"/>
<path d="m147.97 167.61q-0.5782 0.2969-1.2188 0.4375-0.6406 0.1562-1.3437 0.1562-2.5 0-3.8282-1.6406-1.3125-1.6562-1.3125-4.7812t1.3125-4.7813q1.3282-1.6562 3.8282-1.6562 0.7031 0 1.3437 0.1562 0.6563 0.1563 1.2188 0.4531v2.7188q-0.625-0.5781-1.2188-0.8438-0.5937-0.2812-1.2187-0.2812-1.3438 0-2.0313 1.0781-0.6875 1.0625-0.6875 3.1563 0 2.0937 0.6875 3.1718 0.6875 1.0625 2.0313 1.0625 0.625 0 1.2187-0.2656 0.5938-0.2812 1.2188-0.8594v2.7188z"/>
<text x="204.79" y="160.9951" fill="#000000" font-family="sans-serif" font-size="14" textLength="154.5332">DeviceTweaks.Widget</text>
<text x="159" y="173.5791" fill="#000000" font-family="sans-serif" font-size="10" textLength="246.1133">de.kaffeemitkoffein.tinyweatherforecastgermany</text>
</g>
</a>
<ellipse cx="269" cy="115.22" rx="8" ry="8" fill="#fff" stroke="#181818"/>
<line x1="269" x2="269" y1="123.22" y2="107.22" stroke="#181818"/>
<line x1="261" x2="277" y1="115.22" y2="115.22" stroke="#181818"/>
<path d="m269 123.22v19.77" fill="none" stroke="#181818"/>
<text x="263.9106" y="184.2822" fill="#888888" font-family="sans-serif" font-size="10" textLength="3.1787"></text>
<a href="https://github.com/talsma-ict/umldoclet" target="_top" title="https://github.com/talsma-ict/umldoclet" xlink:actuate="onRequest" xlink:href="https://github.com/talsma-ict/umldoclet" xlink:show="new" xlink:title="https://github.com/talsma-ict/umldoclet" xlink:type="simple">
<text x="224.3452" y="195.9229" fill="#888888" font-family="sans-serif" font-size="10" textLength="82.3096">UMLDoclet 2.2.1</text>
</a>
</svg>
