<?xml version="1.0" encoding="UTF-8"?>
<svg width="291px" height="99px" style="background:transparent;height:99px;width:291px" contentStyleType="text/css" preserveAspectRatio="none" version="1.1" viewBox="0 0 291 99" xmlns="http://www.w3.org/2000/svg" xmlns:xlink="http://www.w3.org/1999/xlink" zoomAndPan="magnify">
<a href="OnBootCompletedReceiver.html" target="_top" title="OnBootCompletedReceiver.html" xlink:actuate="onRequest" xlink:href="OnBootCompletedReceiver.html" xlink:show="new" xlink:title="OnBootCompletedReceiver.html" xlink:type="simple">
<g id="a">
<rect id="b" x="6" y="12" width="278.11" height="62.234" rx="2.5" ry="2.5" fill="#F1F1F1" stroke="#181818" stroke-width=".5" codeLine="13"/>
<ellipse cx="21" cy="30.969" rx="11" ry="11" fill="#ADD1B2" stroke="#181818"/>
<path d="m23.969 36.609q-0.5782 0.2969-1.2188 0.4375-0.6406 0.1562-1.3437 0.1562-2.5 0-3.8282-1.6406-1.3125-1.6562-1.3125-4.7812t1.3125-4.7813q1.3282-1.6562 3.8282-1.6562 0.7031 0 1.3437 0.1562 0.6563 0.1563 1.2188 0.4531v2.7188q-0.625-0.5781-1.2188-0.8438-0.5937-0.2812-1.2187-0.2812-1.3438 0-2.0313 1.0781-0.6875 1.0625-0.6875 3.1563 0 2.0937 0.6875 3.1718 0.6875 1.0625 2.0313 1.0625 0.625 0 1.2187-0.2656 0.5938-0.2812 1.2188-0.8594v2.7188z"/>
<text x="63.2217" y="29.9951" fill="#000000" font-family="sans-serif" font-size="14" textLength="189.6699">OnBootCompletedReceiver</text>
<text x="35" y="42.5791" fill="#000000" font-family="sans-serif" font-size="10" textLength="246.1133">de.kaffeemitkoffein.tinyweatherforecastgermany</text>
<line x1="7" x2="283.11" y1="49.938" y2="49.938" stroke="#181818" stroke-width=".5"/>
<ellipse cx="17" cy="63.586" rx="3" ry="3" fill="#84BE84" stroke="#038048"/>
<text x="26" y="66.9326" fill="#000000" font-family="sans-serif" font-size="14" textLength="228.0537">onReceive(Context, Intent): void</text>
</g>
</a>
<text x="139.9106" y="77.2822" fill="#888888" font-family="sans-serif" font-size="10" textLength="3.1787"></text>
<a href="https://github.com/talsma-ict/umldoclet" target="_top" title="https://github.com/talsma-ict/umldoclet" xlink:actuate="onRequest" xlink:href="https://github.com/talsma-ict/umldoclet" xlink:show="new" xlink:title="https://github.com/talsma-ict/umldoclet" xlink:type="simple">
<text x="100.3452" y="88.9229" fill="#888888" font-family="sans-serif" font-size="10" textLength="82.3096">UMLDoclet 2.2.1</text>
</a>
</svg>
