<?xml version="1.0" encoding="UTF-8"?>
<svg width="516px" height="254px" style="background:transparent;height:254px;width:516px" contentStyleType="text/css" preserveAspectRatio="none" version="1.1" viewBox="0 0 516 254" xmlns="http://www.w3.org/2000/svg" xmlns:xlink="http://www.w3.org/1999/xlink" zoomAndPan="magnify">
<a href="PollenArea.html" target="_top" title="PollenArea.html" xlink:actuate="onRequest" xlink:href="PollenArea.html" xlink:show="new" xlink:title="PollenArea.html" xlink:type="simple">
<g id="a">
<rect id="b" x="6" y="12" width="504" height="216.91" rx="2.5" ry="2.5" fill="#F1F1F1" stroke="#181818" stroke-width=".5" codeLine="13"/>
<ellipse cx="130.69" cy="30.969" rx="11" ry="11" fill="#ADD1B2" stroke="#181818"/>
<path d="m133.66 36.609q-0.5782 0.2969-1.2188 0.4375-0.6406 0.1562-1.3437 0.1562-2.5 0-3.8282-1.6406-1.3125-1.6562-1.3125-4.7812t1.3125-4.7813q1.3282-1.6562 3.8282-1.6562 0.7031 0 1.3437 0.1562 0.6563 0.1563 1.2188 0.4531v2.7188q-0.625-0.5781-1.2188-0.8438-0.5937-0.2812-1.2187-0.2812-1.3438 0-2.0313 1.0781-0.6875 1.0625-0.6875 3.1563 0 2.0937 0.6875 3.1718 0.6875 1.0625 2.0313 1.0625 0.625 0 1.2187-0.2656 0.5938-0.2812 1.2188-0.8594v2.7188z"/>
<text x="236.8486" y="29.9951" fill="#000000" font-family="sans-serif" font-size="14" textLength="74.7988">PollenArea</text>
<text x="151.1914" y="42.5791" fill="#000000" font-family="sans-serif" font-size="10" textLength="246.1133">de.kaffeemitkoffein.tinyweatherforecastgermany</text>
<line x1="7" x2="509" y1="49.938" y2="49.938" stroke="#181818" stroke-width=".5"/>
<ellipse cx="17" cy="63.586" rx="3" ry="3" fill="none" stroke="#038048"/>
<text x="26" y="66.9326" fill="#000000" font-family="sans-serif" font-size="14" text-decoration="underline" textLength="235.04">POLYGON_DATABASE_COUNT: int</text>
<ellipse cx="17" cy="79.883" rx="3" ry="3" fill="none" stroke="#038048"/>
<text x="26" y="83.2295" fill="#000000" font-family="sans-serif" font-size="14" textLength="148.6816">polygonString: String</text>
<line x1="7" x2="509" y1="90.531" y2="90.531" stroke="#181818" stroke-width=".5"/>
<ellipse cx="17" cy="104.18" rx="3" ry="3" fill="#84BE84" stroke="#038048"/>
<text x="26" y="107.5264" fill="#000000" font-family="sans-serif" font-size="14" textLength="85.7227">PollenArea()</text>
<ellipse cx="17" cy="120.48" rx="3" ry="3" fill="#84BE84" stroke="#038048"/>
<text x="26" y="123.8232" fill="#000000" font-family="sans-serif" font-size="14" textLength="181.8086">PollenArea(int, int, String)</text>
<ellipse cx="17" cy="136.77" rx="3" ry="3" fill="#84BE84" stroke="#038048"/>
<text x="26" y="140.1201" fill="#000000" font-family="sans-serif" font-size="14" textLength="153.248">initPolygon(): Polygon</text>
<ellipse cx="17" cy="153.07" rx="3" ry="3" fill="#84BE84" stroke="#038048"/>
<text x="26" y="156.417" fill="#000000" font-family="sans-serif" font-size="14" text-decoration="underline" textLength="477.9961">WritePollenAreasToDatabase(Context, ArrayList&lt;PollenArea&gt;): void</text>
<ellipse cx="17" cy="169.37" rx="3" ry="3" fill="#84BE84" stroke="#038048"/>
<text x="26" y="172.7139" fill="#000000" font-family="sans-serif" font-size="14" text-decoration="underline" textLength="296.0166">GetPollenAreasDatabaseSize(Context): int</text>
<ellipse cx="17" cy="185.66" rx="3" ry="3" fill="#84BE84" stroke="#038048"/>
<text x="26" y="189.0107" fill="#000000" font-family="sans-serif" font-size="14" text-decoration="underline" textLength="351.6475">IsPollenAreaDatabaseComplete(Context): boolean</text>
<ellipse cx="17" cy="201.96" rx="3" ry="3" fill="#84BE84" stroke="#038048"/>
<text x="26" y="205.3076" fill="#000000" font-family="sans-serif" font-size="14" text-decoration="underline" textLength="402.1719">GetPollenAreas(Context, Integer): ArrayList&lt;PollenArea&gt;</text>
<ellipse cx="17" cy="218.26" rx="3" ry="3" fill="#84BE84" stroke="#038048"/>
<text x="26" y="221.6045" fill="#000000" font-family="sans-serif" font-size="14" text-decoration="underline" textLength="382.6074">FindPollenArea(Context, WeatherLocation): PollenArea</text>
</g>
</a>
<text x="252.9106" y="232.2822" fill="#888888" font-family="sans-serif" font-size="10" textLength="3.1787"></text>
<a href="https://github.com/talsma-ict/umldoclet" target="_top" title="https://github.com/talsma-ict/umldoclet" xlink:actuate="onRequest" xlink:href="https://github.com/talsma-ict/umldoclet" xlink:show="new" xlink:title="https://github.com/talsma-ict/umldoclet" xlink:type="simple">
<text x="213.3452" y="243.9229" fill="#888888" font-family="sans-serif" font-size="10" textLength="82.3096">UMLDoclet 2.2.1</text>
</a>
</svg>
