<?xml version="1.0" encoding="UTF-8"?>
<svg width="457px" height="319px" style="background:transparent;height:319px;width:457px" contentStyleType="text/css" preserveAspectRatio="none" version="1.1" viewBox="0 0 457 319" xmlns="http://www.w3.org/2000/svg" xmlns:xlink="http://www.w3.org/1999/xlink" zoomAndPan="magnify">
<a href="Polygon.html" target="_top" title="Polygon.html" xlink:actuate="onRequest" xlink:href="Polygon.html" xlink:show="new" xlink:title="Polygon.html" xlink:type="simple">
<g id="a">
<rect id="b" x="6" y="12" width="444.07" height="282.09" rx="2.5" ry="2.5" fill="#F1F1F1" stroke="#181818" stroke-width=".5" codeLine="13"/>
<ellipse cx="100.73" cy="30.969" rx="11" ry="11" fill="#ADD1B2" stroke="#181818"/>
<path d="m103.7 36.609q-0.5781 0.2969-1.2187 0.4375-0.6406 0.1562-1.3438 0.1562-2.5 0-3.8281-1.6406-1.3125-1.6562-1.3125-4.7812t1.3125-4.7813q1.3281-1.6562 3.8281-1.6562 0.7032 0 1.3438 0.1562 0.6562 0.1563 1.2187 0.4531v2.7188q-0.625-0.5781-1.2187-0.8438-0.5938-0.2812-1.2188-0.2812-1.3437 0-2.0312 1.0781-0.6875 1.0625-0.6875 3.1563 0 2.0937 0.6875 3.1718 0.6875 1.0625 2.0312 1.0625 0.625 0 1.2188-0.2656 0.5937-0.2812 1.2187-0.8594v2.7188z"/>
<text x="216.5322" y="29.9951" fill="#000000" font-family="sans-serif" font-size="14" textLength="55.5078">Polygon</text>
<text x="121.2295" y="42.5791" fill="#000000" font-family="sans-serif" font-size="10" textLength="246.1133">de.kaffeemitkoffein.tinyweatherforecastgermany</text>
<line x1="7" x2="449.07" y1="49.938" y2="49.938" stroke="#181818" stroke-width=".5"/>
<ellipse cx="17" cy="63.586" rx="3" ry="3" fill="none" stroke="#038048"/>
<text x="26" y="66.9326" fill="#000000" font-family="sans-serif" font-size="14" textLength="117.0859">polygonX: float[]</text>
<ellipse cx="17" cy="79.883" rx="3" ry="3" fill="none" stroke="#038048"/>
<text x="26" y="83.2295" fill="#000000" font-family="sans-serif" font-size="14" textLength="116.0469">polygonY: float[]</text>
<ellipse cx="17" cy="96.18" rx="3" ry="3" fill="none" stroke="#038048"/>
<text x="26" y="99.5264" fill="#000000" font-family="sans-serif" font-size="14" textLength="145.5371">identifier_link: String</text>
<line x1="7" x2="449.07" y1="106.83" y2="106.83" stroke="#181818" stroke-width=".5"/>
<ellipse cx="17" cy="120.48" rx="3" ry="3" fill="#84BE84" stroke="#038048"/>
<text x="26" y="123.8232" fill="#000000" font-family="sans-serif" font-size="14" textLength="84.6836">Polygon(int)</text>
<ellipse cx="17" cy="136.77" rx="3" ry="3" fill="#84BE84" stroke="#038048"/>
<text x="26" y="140.1201" fill="#000000" font-family="sans-serif" font-size="14" textLength="108.2129">Polygon(String)</text>
<ellipse cx="17" cy="153.07" rx="3" ry="3" fill="#84BE84" stroke="#038048"/>
<text x="26" y="156.417" fill="#000000" font-family="sans-serif" font-size="14" textLength="210.7656">Polygon(float[], float[], String)</text>
<ellipse cx="17" cy="169.37" rx="3" ry="3" fill="#84BE84" stroke="#038048"/>
<text x="26" y="172.7139" fill="#000000" font-family="sans-serif" font-size="14" textLength="189.5742">Polygon(JSONArray, String)</text>
<ellipse cx="17" cy="185.66" rx="3" ry="3" fill="#84BE84" stroke="#038048"/>
<text x="26" y="189.0107" fill="#000000" font-family="sans-serif" font-size="14" textLength="157.8828">getPolygonX(int): float</text>
<ellipse cx="17" cy="201.96" rx="3" ry="3" fill="#84BE84" stroke="#038048"/>
<text x="26" y="205.3076" fill="#000000" font-family="sans-serif" font-size="14" textLength="156.8438">getPolygonY(int): float</text>
<ellipse cx="17" cy="218.26" rx="3" ry="3" fill="#84BE84" stroke="#038048"/>
<text x="26" y="221.6045" fill="#000000" font-family="sans-serif" font-size="14" textLength="199.4795">getPolygonXCentroid(): float</text>
<ellipse cx="17" cy="234.55" rx="3" ry="3" fill="#84BE84" stroke="#038048"/>
<text x="26" y="237.9014" fill="#000000" font-family="sans-serif" font-size="14" textLength="198.4404">getPolygonYCentroid(): float</text>
<ellipse cx="17" cy="250.85" rx="3" ry="3" fill="#84BE84" stroke="#038048"/>
<text x="26" y="254.1982" fill="#000000" font-family="sans-serif" font-size="14" textLength="227.5615">isInPolygon(float, float): boolean</text>
<ellipse cx="17" cy="267.15" rx="3" ry="3" fill="#84BE84" stroke="#038048"/>
<text x="26" y="270.4951" fill="#000000" font-family="sans-serif" font-size="14" textLength="274.9824">isInPolygon(WeatherLocation): boolean</text>
<ellipse cx="17" cy="283.45" rx="3" ry="3" fill="#84BE84" stroke="#038048"/>
<text x="26" y="286.792" fill="#000000" font-family="sans-serif" font-size="14" text-decoration="underline" textLength="418.0723">getPolygonArraylistFromString(String): ArrayList&lt;Polygon&gt;</text>
</g>
</a>
<text x="222.9106" y="297.2822" fill="#888888" font-family="sans-serif" font-size="10" textLength="3.1787"></text>
<a href="https://github.com/talsma-ict/umldoclet" target="_top" title="https://github.com/talsma-ict/umldoclet" xlink:actuate="onRequest" xlink:href="https://github.com/talsma-ict/umldoclet" xlink:show="new" xlink:title="https://github.com/talsma-ict/umldoclet" xlink:type="simple">
<text x="183.3452" y="308.9229" fill="#888888" font-family="sans-serif" font-size="10" textLength="82.3096">UMLDoclet 2.2.1</text>
</a>
</svg>
