<?xml version="1.0" encoding="UTF-8"?>
<svg width="293px" height="287px" style="background:transparent;height:287px;width:293px" contentStyleType="text/css" preserveAspectRatio="none" version="1.1" viewBox="0 0 293 287" xmlns="http://www.w3.org/2000/svg" xmlns:xlink="http://www.w3.org/1999/xlink" zoomAndPan="magnify">
<a href="RadarMN.html" target="_top" title="RadarMN.html" xlink:actuate="onRequest" xlink:href="RadarMN.html" xlink:show="new" xlink:title="RadarMN.html" xlink:type="simple">
<g id="a">
<rect id="b" x="6" y="12" width="280.54" height="249.5" rx="2.5" ry="2.5" fill="#F1F1F1" stroke="#181818" stroke-width=".5" codeLine="13"/>
<ellipse cx="22.093" cy="30.969" rx="11" ry="11" fill="#ADD1B2" stroke="#181818"/>
<path d="m25.062 36.609q-0.5781 0.2969-1.2187 0.4375-0.6407 0.1562-1.3438 0.1562-2.5 0-3.8281-1.6406-1.3125-1.6562-1.3125-4.7812t1.3125-4.7813q1.3281-1.6562 3.8281-1.6562 0.7031 0 1.3438 0.1562 0.6562 0.1563 1.2187 0.4531v2.7188q-0.625-0.5781-1.2187-0.8438-0.5938-0.2812-1.2188-0.2812-1.3437 0-2.0312 1.0781-0.6875 1.0625-0.6875 3.1563 0 2.0937 0.6875 3.1718 0.6875 1.0625 2.0312 1.0625 0.625 0 1.2188-0.2656 0.5937-0.2812 1.2187-0.8594v2.7188z"/>
<text x="127.3529" y="29.9951" fill="#000000" font-family="sans-serif" font-size="14" textLength="64.0801">RadarMN</text>
<text x="36.3363" y="42.5791" fill="#000000" font-family="sans-serif" font-size="10" textLength="246.1133">de.kaffeemitkoffein.tinyweatherforecastgermany</text>
<line x1="7" x2="285.54" y1="49.938" y2="49.938" stroke="#181818" stroke-width=".5"/>
<ellipse cx="17" cy="63.586" rx="3" ry="3" fill="none" stroke="#038048"/>
<text x="26" y="66.9326" fill="#000000" font-family="sans-serif" font-size="14" text-decoration="underline" textLength="248.9443">RADARMAP_PIXEL_FIXEDWIDTH: int</text>
<ellipse cx="17" cy="79.883" rx="3" ry="3" fill="none" stroke="#038048"/>
<text x="26" y="83.2295" fill="#000000" font-family="sans-serif" font-size="14" text-decoration="underline" textLength="254.543">RADARMAP_PIXEL_FIXEDHEIGHT: int</text>
<ellipse cx="17" cy="96.18" rx="3" ry="3" fill="none" stroke="#038048"/>
<text x="26" y="99.5264" fill="#000000" font-family="sans-serif" font-size="14" text-decoration="underline" textLength="192.876">RADARMAP_BYTESIZE: long</text>
<line x1="7" x2="285.54" y1="106.83" y2="106.83" stroke="#181818" stroke-width=".5"/>
<ellipse cx="17" cy="120.48" rx="3" ry="3" fill="#84BE84" stroke="#038048"/>
<text x="26" y="123.8232" fill="#000000" font-family="sans-serif" font-size="14" text-decoration="underline" textLength="161.793">getGeoWidth(int): float</text>
<ellipse cx="17" cy="136.77" rx="3" ry="3" fill="#84BE84" stroke="#038048"/>
<text x="26" y="140.1201" fill="#000000" font-family="sans-serif" font-size="14" text-decoration="underline" textLength="167.0908">getGeoHeight(int): float</text>
<ellipse cx="17" cy="153.07" rx="3" ry="3" fill="#84BE84" stroke="#038048"/>
<text x="26" y="156.417" fill="#000000" font-family="sans-serif" font-size="14" text-decoration="underline" textLength="194.3457">getGeoXRowStart(int): float</text>
<ellipse cx="17" cy="169.37" rx="3" ry="3" fill="#84BE84" stroke="#038048"/>
<text x="26" y="172.7139" fill="#000000" font-family="sans-serif" font-size="14" text-decoration="underline" textLength="157.5547">getGeoX(int, int): float</text>
<ellipse cx="17" cy="185.66" rx="3" ry="3" fill="#84BE84" stroke="#038048"/>
<text x="26" y="189.0107" fill="#000000" font-family="sans-serif" font-size="14" text-decoration="underline" textLength="189.5674">getGeoYStartTop(int): float</text>
<ellipse cx="17" cy="201.96" rx="3" ry="3" fill="#84BE84" stroke="#038048"/>
<text x="26" y="205.3076" fill="#000000" font-family="sans-serif" font-size="14" text-decoration="underline" textLength="156.5156">getGeoY(int, int): float</text>
<ellipse cx="17" cy="218.26" rx="3" ry="3" fill="#84BE84" stroke="#038048"/>
<text x="26" y="221.6045" fill="#000000" font-family="sans-serif" font-size="14" text-decoration="underline" textLength="112.6699">getPixels(): int[]</text>
<ellipse cx="17" cy="234.55" rx="3" ry="3" fill="#84BE84" stroke="#038048"/>
<text x="26" y="237.9014" fill="#000000" font-family="sans-serif" font-size="14" text-decoration="underline" textLength="162.7568">getPixels(Bitmap): int[]</text>
<ellipse cx="17" cy="250.85" rx="3" ry="3" fill="#84BE84" stroke="#038048"/>
<text x="26" y="254.1982" fill="#000000" font-family="sans-serif" font-size="14" text-decoration="underline" textLength="187.9268">getData(Context, int): int[]</text>
</g>
</a>
<text x="141.4106" y="265.2822" fill="#888888" font-family="sans-serif" font-size="10" textLength="3.1787"></text>
<a href="https://github.com/talsma-ict/umldoclet" target="_top" title="https://github.com/talsma-ict/umldoclet" xlink:actuate="onRequest" xlink:href="https://github.com/talsma-ict/umldoclet" xlink:show="new" xlink:title="https://github.com/talsma-ict/umldoclet" xlink:type="simple">
<text x="101.8452" y="276.9229" fill="#888888" font-family="sans-serif" font-size="10" textLength="82.3096">UMLDoclet 2.2.1</text>
</a>
</svg>
