<?xml version="1.0" encoding="UTF-8"?>
<svg width="291px" height="190px" style="background:transparent;height:190px;width:291px" contentStyleType="text/css" preserveAspectRatio="none" version="1.1" viewBox="0 0 291 190" xmlns="http://www.w3.org/2000/svg" xmlns:xlink="http://www.w3.org/1999/xlink" zoomAndPan="magnify">
<a href="WeatherWarning.Severity.html" target="_top" title="WeatherWarning.Severity.html" xlink:actuate="onRequest" xlink:href="WeatherWarning.Severity.html" xlink:show="new" xlink:title="WeatherWarning.Severity.html" xlink:type="simple">
<g id="a">
<rect id="b" x="6" y="86" width="278.11" height="78.531" rx="2.5" ry="2.5" fill="#F1F1F1" stroke="#181818" stroke-width=".5" codeLine="13"/>
<ellipse cx="21" cy="104.97" rx="11" ry="11" fill="#ADD1B2" stroke="#181818"/>
<path d="m23.969 110.61q-0.5782 0.2969-1.2188 0.4375-0.6406 0.1562-1.3437 0.1562-2.5 0-3.8282-1.6406-1.3125-1.6562-1.3125-4.7812t1.3125-4.7813q1.3282-1.6562 3.8282-1.6562 0.7031 0 1.3437 0.1562 0.6563 0.1563 1.2188 0.4531v2.7188q-0.625-0.5781-1.2188-0.8438-0.5937-0.2812-1.2187-0.2812-1.3438 0-2.0313 1.0781-0.6875 1.0625-0.6875 3.1563 0 2.0937 0.6875 3.1718 0.6875 1.0625 2.0313 1.0625 0.625 0 1.2187-0.2656 0.5938-0.2812 1.2188-0.8594v2.7188z"/>
<text x="67.689" y="103.9951" fill="#000000" font-family="sans-serif" font-size="14" textLength="180.7354">WeatherWarning.Severity</text>
<text x="35" y="116.5791" fill="#000000" font-family="sans-serif" font-size="10" textLength="246.1133">de.kaffeemitkoffein.tinyweatherforecastgermany</text>
<line x1="7" x2="283.11" y1="123.94" y2="123.94" stroke="#181818" stroke-width=".5"/>
<ellipse cx="17" cy="137.59" rx="3" ry="3" fill="#84BE84" stroke="#038048"/>
<text x="26" y="140.9326" fill="#000000" font-family="sans-serif" font-size="14" text-decoration="underline" textLength="112.6699">toInt(String): int</text>
<ellipse cx="17" cy="153.88" rx="3" ry="3" fill="#84BE84" stroke="#038048"/>
<text x="26" y="157.2295" fill="#000000" font-family="sans-serif" font-size="14" text-decoration="underline" textLength="146.1113">GetColorHue(int): int</text>
</g>
</a>
<a href="WeatherWarning.html" target="_top" title="WeatherWarning.html" xlink:actuate="onRequest" xlink:href="WeatherWarning.html" xlink:show="new" xlink:title="WeatherWarning.html" xlink:type="simple">
<g id="c">
<rect id="d" x="6" y="12" width="278.11" height="37.938" rx="2.5" ry="2.5" fill="#F1F1F1" stroke="#181818" stroke-width=".5" codeLine="18"/>
<ellipse cx="21" cy="30.969" rx="11" ry="11" fill="#ADD1B2" stroke="#181818"/>
<path d="m23.969 36.609q-0.5782 0.2969-1.2188 0.4375-0.6406 0.1562-1.3437 0.1562-2.5 0-3.8282-1.6406-1.3125-1.6562-1.3125-4.7812t1.3125-4.7813q1.3282-1.6562 3.8282-1.6562 0.7031 0 1.3437 0.1562 0.6563 0.1563 1.2188 0.4531v2.7188q-0.625-0.5781-1.2188-0.8438-0.5937-0.2812-1.2187-0.2812-1.3438 0-2.0313 1.0781-0.6875 1.0625-0.6875 3.1563 0 2.0937 0.6875 3.1718 0.6875 1.0625 2.0313 1.0625 0.625 0 1.2187-0.2656 0.5938-0.2812 1.2188-0.8594v2.7188z"/>
<text x="98.8232" y="29.9951" fill="#000000" font-family="sans-serif" font-size="14" textLength="118.4668">WeatherWarning</text>
<text x="35" y="42.5791" fill="#000000" font-family="sans-serif" font-size="10" textLength="246.1133">de.kaffeemitkoffein.tinyweatherforecastgermany</text>
</g>
</a>
<ellipse cx="145" cy="58.275" rx="8" ry="8" fill="#fff" stroke="#181818"/>
<line x1="145" x2="145" y1="66.275" y2="50.275" stroke="#181818"/>
<line x1="137" x2="153" y1="58.275" y2="58.275" stroke="#181818"/>
<path d="m145 66.275v19.715" fill="none" stroke="#181818"/>
<text x="139.9106" y="168.2822" fill="#888888" font-family="sans-serif" font-size="10" textLength="3.1787"></text>
<a href="https://github.com/talsma-ict/umldoclet" target="_top" title="https://github.com/talsma-ict/umldoclet" xlink:actuate="onRequest" xlink:href="https://github.com/talsma-ict/umldoclet" xlink:show="new" xlink:title="https://github.com/talsma-ict/umldoclet" xlink:type="simple">
<text x="100.3452" y="179.9229" fill="#888888" font-family="sans-serif" font-size="10" textLength="82.3096">UMLDoclet 2.2.1</text>
</a>
</svg>
