<?xml version="1.0" encoding="UTF-8"?>
<svg width="631px" height="213px" style="background:transparent;height:213px;width:631px" contentStyleType="text/css" preserveAspectRatio="none" version="1.1" viewBox="0 0 631 213" xmlns="http://www.w3.org/2000/svg" xmlns:xlink="http://www.w3.org/1999/xlink" zoomAndPan="magnify">
<a href="WeatherAuthenticator.html" target="_top" title="WeatherAuthenticator.html" xlink:actuate="onRequest" xlink:href="WeatherAuthenticator.html" xlink:show="new" xlink:title="WeatherAuthenticator.html" xlink:type="simple">
<g id="a">
<rect id="b" x="6" y="12" width="618.97" height="176.31" rx="2.5" ry="2.5" fill="#F1F1F1" stroke="#181818" stroke-width=".5" codeLine="13"/>
<ellipse cx="188.18" cy="30.969" rx="11" ry="11" fill="#ADD1B2" stroke="#181818"/>
<path d="m191.15 36.609q-0.5782 0.2969-1.2188 0.4375-0.6406 0.1562-1.3437 0.1562-2.5 0-3.8282-1.6406-1.3125-1.6562-1.3125-4.7812t1.3125-4.7813q1.3282-1.6562 3.8282-1.6562 0.7031 0 1.3437 0.1562 0.6563 0.1563 1.2188 0.4531v2.7188q-0.625-0.5781-1.2188-0.8438-0.5937-0.2812-1.2187-0.2812-1.3438 0-2.0313 1.0781-0.6875 1.0625-0.6875 3.1563 0 2.0937 0.6875 3.1718 0.6875 1.0625 2.0313 1.0625 0.625 0 1.2187-0.2656 0.5938-0.2812 1.2188-0.8594v2.7188z"/>
<text x="253.9692" y="29.9951" fill="#000000" font-family="sans-serif" font-size="14" textLength="155.5313">WeatherAuthenticator</text>
<text x="208.6782" y="42.5791" fill="#000000" font-family="sans-serif" font-size="10" textLength="246.1133">de.kaffeemitkoffein.tinyweatherforecastgermany</text>
<line x1="7" x2="623.97" y1="49.938" y2="49.938" stroke="#181818" stroke-width=".5"/>
<ellipse cx="17" cy="63.586" rx="3" ry="3" fill="#84BE84" stroke="#038048"/>
<text x="26" y="66.9326" fill="#000000" font-family="sans-serif" font-size="14" textLength="221.5459">WeatherAuthenticator(Context)</text>
<ellipse cx="17" cy="79.883" rx="3" ry="3" fill="#84BE84" stroke="#038048"/>
<text x="26" y="83.2295" fill="#000000" font-family="sans-serif" font-size="14" textLength="438.1016">editProperties(AccountAuthenticatorResponse, String): Bundle</text>
<ellipse cx="17" cy="96.18" rx="3" ry="3" fill="#84BE84" stroke="#038048"/>
<text x="26" y="99.5264" fill="#000000" font-family="sans-serif" font-size="14" textLength="592.9697">addAccount(AccountAuthenticatorResponse, String, String, String[], Bundle): Bundle</text>
<ellipse cx="17" cy="112.48" rx="3" ry="3" fill="#84BE84" stroke="#038048"/>
<text x="26" y="115.8232" fill="#000000" font-family="sans-serif" font-size="14" textLength="545.5557">confirmCredentials(AccountAuthenticatorResponse, Account, Bundle): Bundle</text>
<ellipse cx="17" cy="128.77" rx="3" ry="3" fill="#84BE84" stroke="#038048"/>
<text x="26" y="132.1201" fill="#000000" font-family="sans-serif" font-size="14" textLength="561.7432">getAuthToken(AccountAuthenticatorResponse, Account, String, Bundle): Bundle</text>
<ellipse cx="17" cy="145.07" rx="3" ry="3" fill="#84BE84" stroke="#038048"/>
<text x="26" y="148.417" fill="#000000" font-family="sans-serif" font-size="14" textLength="239.9346">getAuthTokenLabel(String): String</text>
<ellipse cx="17" cy="161.37" rx="3" ry="3" fill="#84BE84" stroke="#038048"/>
<text x="26" y="164.7139" fill="#000000" font-family="sans-serif" font-size="14" textLength="592.2178">updateCredentials(AccountAuthenticatorResponse, Account, String, Bundle): Bundle</text>
<ellipse cx="17" cy="177.66" rx="3" ry="3" fill="#84BE84" stroke="#038048"/>
<text x="26" y="181.0107" fill="#000000" font-family="sans-serif" font-size="14" textLength="502.5303">hasFeatures(AccountAuthenticatorResponse, Account, String[]): Bundle</text>
</g>
</a>
<text x="310.4106" y="191.2822" fill="#888888" font-family="sans-serif" font-size="10" textLength="3.1787"></text>
<a href="https://github.com/talsma-ict/umldoclet" target="_top" title="https://github.com/talsma-ict/umldoclet" xlink:actuate="onRequest" xlink:href="https://github.com/talsma-ict/umldoclet" xlink:show="new" xlink:title="https://github.com/talsma-ict/umldoclet" xlink:type="simple">
<text x="270.8452" y="202.9229" fill="#888888" font-family="sans-serif" font-size="10" textLength="82.3096">UMLDoclet 2.2.1</text>
</a>
</svg>
