<?xml version="1.0" encoding="UTF-8"?>
<svg width="888px" height="287px" style="background:transparent;height:287px;width:888px" contentStyleType="text/css" preserveAspectRatio="none" version="1.1" viewBox="0 0 888 287" xmlns="http://www.w3.org/2000/svg" xmlns:xlink="http://www.w3.org/1999/xlink" zoomAndPan="magnify">
<a href="WeatherWarningAdapter.html" target="_top" title="WeatherWarningAdapter.html" xlink:actuate="onRequest" xlink:href="WeatherWarningAdapter.html" xlink:show="new" xlink:title="WeatherWarningAdapter.html" xlink:type="simple">
<g id="a">
<rect id="b" x="6" y="12" width="875.43" height="176.31" rx="2.5" ry="2.5" fill="#F1F1F1" stroke="#181818" stroke-width=".5" codeLine="13"/>
<ellipse cx="316.41" cy="30.969" rx="11" ry="11" fill="#ADD1B2" stroke="#181818"/>
<path d="m319.38 36.609q-0.5781 0.2969-1.2188 0.4375-0.6406 0.1562-1.3437 0.1562-2.5 0-3.8281-1.6406-1.3125-1.6562-1.3125-4.7812t1.3125-4.7813q1.3281-1.6562 3.8281-1.6562 0.7031 0 1.3437 0.1562 0.6563 0.1563 1.2188 0.4531v2.7188q-0.625-0.5781-1.2188-0.8438-0.5937-0.2812-1.2187-0.2812-1.3438 0-2.0313 1.0781-0.6875 1.0625-0.6875 3.1563 0 2.0937 0.6875 3.1718 0.6875 1.0625 2.0313 1.0625 0.625 0 1.2187-0.2656 0.5938-0.2812 1.2188-0.8594v2.7188z"/>
<text x="372.8359" y="29.9951" fill="#000000" font-family="sans-serif" font-size="14" textLength="174.2549">WeatherWarningAdapter</text>
<text x="336.9067" y="42.5791" fill="#000000" font-family="sans-serif" font-size="10" textLength="246.1133">de.kaffeemitkoffein.tinyweatherforecastgermany</text>
<line x1="7" x2="880.43" y1="49.938" y2="49.938" stroke="#181818" stroke-width=".5"/>
<ellipse cx="17" cy="63.586" rx="3" ry="3" fill="#84BE84" stroke="#038048"/>
<text x="26" y="66.9326" fill="#000000" font-family="sans-serif" font-size="14" textLength="524.5488">WeatherWarningAdapter(Context, ArrayList&lt;WeatherWarning&gt;, Executor)</text>
<ellipse cx="17" cy="79.883" rx="3" ry="3" fill="#84BE84" stroke="#038048"/>
<text x="26" y="83.2295" fill="#000000" font-family="sans-serif" font-size="14" textLength="377.9932">setLocalWarnings(ArrayList&lt;WeatherWarning&gt;): void</text>
<ellipse cx="17" cy="96.18" rx="3" ry="3" fill="#84BE84" stroke="#038048"/>
<text x="26" y="99.5264" fill="#000000" font-family="sans-serif" font-size="14" text-decoration="underline" textLength="173.7354">formatTime(long): String</text>
<ellipse cx="17" cy="112.48" rx="3" ry="3" fill="#84BE84" stroke="#038048"/>
<text x="26" y="115.8232" fill="#000000" font-family="sans-serif" font-size="14" textLength="102.9082">getCount(): int</text>
<ellipse cx="17" cy="128.77" rx="3" ry="3" fill="#84BE84" stroke="#038048"/>
<text x="26" y="132.1201" fill="#000000" font-family="sans-serif" font-size="14" textLength="138.7969">getItem(int): Object</text>
<ellipse cx="17" cy="145.07" rx="3" ry="3" fill="#84BE84" stroke="#038048"/>
<text x="26" y="148.417" fill="#000000" font-family="sans-serif" font-size="14" textLength="136.4316">getItemId(int): long</text>
<ellipse cx="17" cy="161.37" rx="3" ry="3" fill="#84BE84" stroke="#038048"/>
<text x="26" y="164.7139" fill="#000000" font-family="sans-serif" font-size="14" textLength="256.1836">getView(int, View, ViewGroup): View</text>
<ellipse cx="17" cy="177.66" rx="3" ry="3" fill="#84BE84" stroke="#038048"/>
<text x="26" y="181.0107" fill="#000000" font-family="sans-serif" font-size="14" text-decoration="underline" textLength="849.4268">setWarningViewElements(Context, LayoutInflater, View, ViewGroup, WeatherWarning, boolean, Handler, Executor): View</text>
</g>
</a>
<a href="WeatherWarningAdapter.ViewHolder.html" target="_top" title="WeatherWarningAdapter.ViewHolder.html" xlink:actuate="onRequest" xlink:href="WeatherWarningAdapter.ViewHolder.html" xlink:show="new" xlink:title="WeatherWarningAdapter.ViewHolder.html" xlink:type="simple">
<g id="c">
<rect id="d" x="298.5" y="224" width="290.47" height="37.938" rx="2.5" ry="2.5" fill="#F1F1F1" stroke="#181818" stroke-width=".5" codeLine="23"/>
<ellipse cx="313.5" cy="242.97" rx="11" ry="11" fill="#ADD1B2" stroke="#181818"/>
<path d="m316.47 248.61q-0.5782 0.2969-1.2188 0.4375-0.6406 0.1562-1.3437 0.1562-2.5 0-3.8282-1.6406-1.3125-1.6562-1.3125-4.7812t1.3125-4.7813q1.3282-1.6562 3.8282-1.6562 0.7031 0 1.3437 0.1562 0.6563 0.1563 1.2188 0.4531v2.7188q-0.625-0.5781-1.2188-0.8438-0.5937-0.2812-1.2187-0.2812-1.3438 0-2.0313 1.0781-0.6875 1.0625-0.6875 3.1563 0 2.0937 0.6875 3.1718 0.6875 1.0625 2.0313 1.0625 0.625 0 1.2187-0.2656 0.5938-0.2812 1.2188-0.8594v2.7188z"/>
<text x="327.5" y="241.9951" fill="#000000" font-family="sans-serif" font-size="14" textLength="258.4736">WeatherWarningAdapter.ViewHolder</text>
<text x="333.6802" y="254.5791" fill="#000000" font-family="sans-serif" font-size="10" textLength="246.1133">de.kaffeemitkoffein.tinyweatherforecastgermany</text>
</g>
</a>
<ellipse cx="443.5" cy="196.29" rx="8" ry="8" fill="#fff" stroke="#181818"/>
<line x1="443.5" x2="443.5" y1="204.29" y2="188.29" stroke="#181818"/>
<line x1="435.5" x2="451.5" y1="196.29" y2="196.29" stroke="#181818"/>
<path d="m443.5 204.29v19.304" fill="none" stroke="#181818"/>
<text x="438.4106" y="265.2822" fill="#888888" font-family="sans-serif" font-size="10" textLength="3.1787"></text>
<a href="https://github.com/talsma-ict/umldoclet" target="_top" title="https://github.com/talsma-ict/umldoclet" xlink:actuate="onRequest" xlink:href="https://github.com/talsma-ict/umldoclet" xlink:show="new" xlink:title="https://github.com/talsma-ict/umldoclet" xlink:type="simple">
<text x="398.8452" y="276.9229" fill="#888888" font-family="sans-serif" font-size="10" textLength="82.3096">UMLDoclet 2.2.1</text>
</a>
</svg>
