<?xml version="1.0" encoding="UTF-8"?>
<svg width="345px" height="206px" style="background:transparent;height:206px;width:345px" contentStyleType="text/css" preserveAspectRatio="none" version="1.1" viewBox="0 0 345 206" xmlns="http://www.w3.org/2000/svg" xmlns:xlink="http://www.w3.org/1999/xlink" zoomAndPan="magnify">
<a href="WeatherWarnings.NotificationListDbHelper.html" target="_top" title="WeatherWarnings.NotificationListDbHelper.html" xlink:actuate="onRequest" xlink:href="WeatherWarnings.NotificationListDbHelper.html" xlink:show="new" xlink:title="WeatherWarnings.NotificationListDbHelper.html" xlink:type="simple">
<g id="a">
<rect id="b" x="6" y="86" width="332.97" height="94.828" rx="2.5" ry="2.5" fill="#F1F1F1" stroke="#181818" stroke-width=".5" codeLine="13"/>
<ellipse cx="21" cy="104.97" rx="11" ry="11" fill="#ADD1B2" stroke="#181818"/>
<path d="m23.969 110.61q-0.5782 0.2969-1.2188 0.4375-0.6406 0.1562-1.3437 0.1562-2.5 0-3.8282-1.6406-1.3125-1.6562-1.3125-4.7812t1.3125-4.7813q1.3282-1.6562 3.8282-1.6562 0.7031 0 1.3437 0.1562 0.6563 0.1563 1.2188 0.4531v2.7188q-0.625-0.5781-1.2188-0.8438-0.5937-0.2812-1.2187-0.2812-1.3438 0-2.0313 1.0781-0.6875 1.0625-0.6875 3.1563 0 2.0937 0.6875 3.1718 0.6875 1.0625 2.0313 1.0625 0.625 0 1.2187-0.2656 0.5938-0.2812 1.2188-0.8594v2.7188z"/>
<text x="35" y="103.9951" fill="#000000" font-family="sans-serif" font-size="14" textLength="300.9658">WeatherWarnings.NotificationListDbHelper</text>
<text x="62.4263" y="116.5791" fill="#000000" font-family="sans-serif" font-size="10" textLength="246.1133">de.kaffeemitkoffein.tinyweatherforecastgermany</text>
<line x1="7" x2="337.97" y1="123.94" y2="123.94" stroke="#181818" stroke-width=".5"/>
<ellipse cx="17" cy="137.59" rx="3" ry="3" fill="#84BE84" stroke="#038048"/>
<text x="26" y="140.9326" fill="#000000" font-family="sans-serif" font-size="14" textLength="236.7695">NotificationListDbHelper(Context)</text>
<ellipse cx="17" cy="153.88" rx="3" ry="3" fill="#84BE84" stroke="#038048"/>
<text x="26" y="157.2295" fill="#000000" font-family="sans-serif" font-size="14" textLength="226.4814">onCreate(SQLiteDatabase): void</text>
<ellipse cx="17" cy="170.18" rx="3" ry="3" fill="#84BE84" stroke="#038048"/>
<text x="26" y="173.5264" fill="#000000" font-family="sans-serif" font-size="14" textLength="293.8154">onUpgrade(SQLiteDatabase, int, int): void</text>
</g>
</a>
<a href="WeatherWarnings.html" target="_top" title="WeatherWarnings.html" xlink:actuate="onRequest" xlink:href="WeatherWarnings.html" xlink:show="new" xlink:title="WeatherWarnings.html" xlink:type="simple">
<g id="c">
<rect id="d" x="33.5" y="12" width="278.11" height="37.938" rx="2.5" ry="2.5" fill="#F1F1F1" stroke="#181818" stroke-width=".5" codeLine="19"/>
<ellipse cx="48.5" cy="30.969" rx="11" ry="11" fill="#ADD1B2" stroke="#181818"/>
<path d="m51.469 36.609q-0.5782 0.2969-1.2188 0.4375-0.6406 0.1562-1.3437 0.1562-2.5 0-3.8282-1.6406-1.3125-1.6562-1.3125-4.7812t1.3125-4.7813q1.3282-1.6562 3.8282-1.6562 0.7031 0 1.3437 0.1562 0.6563 0.1563 1.2188 0.4531v2.7188q-0.625-0.5781-1.2188-0.8438-0.5937-0.2812-1.2187-0.2812-1.3438 0-2.0313 1.0781-0.6875 1.0625-0.6875 3.1563 0 2.0937 0.6875 3.1718 0.6875 1.0625 2.0313 1.0625 0.625 0 1.2187-0.2656 0.5938-0.2812 1.2188-0.8594v2.7188z"/>
<text x="122.6763" y="29.9951" fill="#000000" font-family="sans-serif" font-size="14" textLength="125.7607">WeatherWarnings</text>
<text x="62.5" y="42.5791" fill="#000000" font-family="sans-serif" font-size="10" textLength="246.1133">de.kaffeemitkoffein.tinyweatherforecastgermany</text>
</g>
</a>
<ellipse cx="172.5" cy="58.433" rx="8" ry="8" fill="#fff" stroke="#181818"/>
<line x1="172.5" x2="172.5" y1="66.433" y2="50.433" stroke="#181818"/>
<line x1="164.5" x2="180.5" y1="58.433" y2="58.433" stroke="#181818"/>
<path d="m172.5 66.433v19.311" fill="none" stroke="#181818"/>
<text x="167.4106" y="184.2822" fill="#888888" font-family="sans-serif" font-size="10" textLength="3.1787"></text>
<a href="https://github.com/talsma-ict/umldoclet" target="_top" title="https://github.com/talsma-ict/umldoclet" xlink:actuate="onRequest" xlink:href="https://github.com/talsma-ict/umldoclet" xlink:show="new" xlink:title="https://github.com/talsma-ict/umldoclet" xlink:type="simple">
<text x="127.8452" y="195.9229" fill="#888888" font-family="sans-serif" font-size="10" textLength="82.3096">UMLDoclet 2.2.1</text>
</a>
</svg>
