<?xml version="1.0" encoding="UTF-8"?>
<svg width="310px" height="238px" style="background:transparent;height:238px;width:310px" contentStyleType="text/css" preserveAspectRatio="none" version="1.1" viewBox="0 0 310 238" xmlns="http://www.w3.org/2000/svg" xmlns:xlink="http://www.w3.org/1999/xlink" zoomAndPan="magnify">
<a href="ZoomableImageView.SPRITEFIXPOINT.html" target="_top" title="ZoomableImageView.SPRITEFIXPOINT.html" xlink:actuate="onRequest" xlink:href="ZoomableImageView.SPRITEFIXPOINT.html" xlink:show="new" xlink:title="ZoomableImageView.SPRITEFIXPOINT.html" xlink:type="simple">
<g id="a">
<rect id="b" x="6" y="86" width="297.12" height="127.42" rx="2.5" ry="2.5" fill="#F1F1F1" stroke="#181818" stroke-width=".5" codeLine="13"/>
<ellipse cx="21" cy="104.97" rx="11" ry="11" fill="#ADD1B2" stroke="#181818"/>
<path d="m23.969 110.61q-0.5782 0.2969-1.2188 0.4375-0.6406 0.1562-1.3437 0.1562-2.5 0-3.8282-1.6406-1.3125-1.6562-1.3125-4.7812t1.3125-4.7813q1.3282-1.6562 3.8282-1.6562 0.7031 0 1.3437 0.1562 0.6563 0.1563 1.2188 0.4531v2.7188q-0.625-0.5781-1.2188-0.8438-0.5937-0.2812-1.2187-0.2812-1.3438 0-2.0313 1.0781-0.6875 1.0625-0.6875 3.1563 0 2.0937 0.6875 3.1718 0.6875 1.0625 2.0313 1.0625 0.625 0 1.2187-0.2656 0.5938-0.2812 1.2188-0.8594v2.7188z"/>
<text x="35" y="103.9951" fill="#000000" font-family="sans-serif" font-size="14" textLength="265.125">ZoomableImageView.SPRITEFIXPOINT</text>
<text x="44.5059" y="116.5791" fill="#000000" font-family="sans-serif" font-size="10" textLength="246.1133">de.kaffeemitkoffein.tinyweatherforecastgermany</text>
<line x1="7" x2="302.12" y1="123.94" y2="123.94" stroke="#181818" stroke-width=".5"/>
<ellipse cx="17" cy="137.59" rx="3" ry="3" fill="none" stroke="#038048"/>
<text x="26" y="140.9326" fill="#000000" font-family="sans-serif" font-size="14" text-decoration="underline" textLength="95.6826">TOP_LEFT: int</text>
<ellipse cx="17" cy="153.88" rx="3" ry="3" fill="none" stroke="#038048"/>
<text x="26" y="157.2295" fill="#000000" font-family="sans-serif" font-size="14" text-decoration="underline" textLength="106.2168">TOP_RIGHT: int</text>
<ellipse cx="17" cy="170.18" rx="3" ry="3" fill="none" stroke="#038048"/>
<text x="26" y="173.5264" fill="#000000" font-family="sans-serif" font-size="14" text-decoration="underline" textLength="128.4951">BOTTOM_LEFT: int</text>
<ellipse cx="17" cy="186.48" rx="3" ry="3" fill="none" stroke="#038048"/>
<text x="26" y="189.8232" fill="#000000" font-family="sans-serif" font-size="14" text-decoration="underline" textLength="139.0293">BOTTOM_RIGHT: int</text>
<ellipse cx="17" cy="202.77" rx="3" ry="3" fill="none" stroke="#038048"/>
<text x="26" y="206.1201" fill="#000000" font-family="sans-serif" font-size="14" text-decoration="underline" textLength="132.2207">SPRITECENTER: int</text>
</g>
</a>
<a href="ZoomableImageView.html" target="_top" title="ZoomableImageView.html" xlink:actuate="onRequest" xlink:href="ZoomableImageView.html" xlink:show="new" xlink:title="ZoomableImageView.html" xlink:type="simple">
<g id="c">
<rect id="d" x="15.5" y="12" width="278.11" height="37.938" rx="2.5" ry="2.5" fill="#F1F1F1" stroke="#181818" stroke-width=".5" codeLine="21"/>
<ellipse cx="30.5" cy="30.969" rx="11" ry="11" fill="#ADD1B2" stroke="#181818"/>
<path d="m33.469 36.609q-0.5782 0.2969-1.2188 0.4375-0.6406 0.1562-1.3437 0.1562-2.5 0-3.8282-1.6406-1.3125-1.6562-1.3125-4.7812t1.3125-4.7813q1.3282-1.6562 3.8282-1.6562 0.7031 0 1.3437 0.1562 0.6563 0.1563 1.2188 0.4531v2.7188q-0.625-0.5781-1.2188-0.8438-0.5937-0.2812-1.2187-0.2812-1.3438 0-2.0313 1.0781-0.6875 1.0625-0.6875 3.1563 0 2.0937 0.6875 3.1718 0.6875 1.0625 2.0313 1.0625 0.625 0 1.2187-0.2656 0.5938-0.2812 1.2188-0.8594v2.7188z"/>
<text x="93.7046" y="29.9951" fill="#000000" font-family="sans-serif" font-size="14" textLength="147.7041">ZoomableImageView</text>
<text x="44.5" y="42.5791" fill="#000000" font-family="sans-serif" font-size="10" textLength="246.1133">de.kaffeemitkoffein.tinyweatherforecastgermany</text>
</g>
</a>
<ellipse cx="154.5" cy="58.203" rx="8" ry="8" fill="#fff" stroke="#181818"/>
<line x1="154.5" x2="154.5" y1="66.203" y2="50.203" stroke="#181818"/>
<line x1="146.5" x2="162.5" y1="58.203" y2="58.203" stroke="#181818"/>
<path d="m154.5 66.203v19.784" fill="none" stroke="#181818"/>
<text x="149.4106" y="216.2822" fill="#888888" font-family="sans-serif" font-size="10" textLength="3.1787"></text>
<a href="https://github.com/talsma-ict/umldoclet" target="_top" title="https://github.com/talsma-ict/umldoclet" xlink:actuate="onRequest" xlink:href="https://github.com/talsma-ict/umldoclet" xlink:show="new" xlink:title="https://github.com/talsma-ict/umldoclet" xlink:type="simple">
<text x="109.8452" y="227.9229" fill="#888888" font-family="sans-serif" font-size="10" textLength="82.3096">UMLDoclet 2.2.1</text>
</a>
</svg>
